<?xml version="1.0" encoding="utf-8"?>
<!-- Generator: Adobe Illustrator 24.2.3, SVG Export Plug-In . SVG Version: 6.00 Build 0)  -->
<svg version="1.1" id="Capa_1" xmlns="http://www.w3.org/2000/svg" xmlns:xlink="http://www.w3.org/1999/xlink" x="0px" y="0px"
	 width="682px" height="71px" viewBox="0 0 682 71" style="enable-background:new 0 0 682 71;" xml:space="preserve">
<style type="text/css">
	.st0{fill:none;stroke:#7AC6E2;stroke-width:2;stroke-linecap:round;}
	.st1{fill:none;stroke:#7AC6E2;stroke-width:2;stroke-linecap:round;stroke-linejoin:round;}
	.st2{opacity:0.7;fill:#7AC6E2;enable-background:new    ;}
	.st3{enable-background:new    ;}
	.st4{fill:#8A8A8A;}
	.st5{fill:#0F93C4;}
	.st6{opacity:0.6;}
</style>
<g id="Grupo_1283" transform="translate(-57 -47)">
	<g id="Grupo_1200" transform="translate(24 -31)">
		<line id="Línea_105" class="st0" x1="68.5" y1="95.5" x2="102.5" y2="95.5"/>
		<path id="Trazado_192" class="st1" d="M100.2,92.5l2.8,2.6l-2.8,3.1"/>
	</g>
	<g id="Grupo_1201" transform="translate(95 -31)">
		<line id="Línea_105-2" class="st0" x1="68.5" y1="95.5" x2="102.5" y2="95.5"/>
		<path id="Trazado_192-2" class="st1" d="M100.2,92.5l2.8,2.6l-2.8,3.1"/>
	</g>
	<circle id="Elipse_32" class="st2" cx="216.5" cy="64.5" r="17.5"/>
	<circle id="Elipse_33" class="st2" cx="287.5" cy="64.5" r="17.5"/>
	<circle id="Elipse_34" class="st2" cx="358.5" cy="64.5" r="17.5"/>
	<circle id="Elipse_35" class="st2" cx="428.5" cy="64.5" r="17.5"/>
	<circle id="Elipse_36" class="st2" cx="498.5" cy="64.5" r="17.5"/>
	<circle id="Elipse_37" class="st2" cx="567.5" cy="64.5" r="17.5"/>
	<circle id="Elipse_38" class="st2" cx="646.5" cy="64.5" r="17.5"/>
	<g class="st3">
		<path class="st4" d="M187.6,90.5V99h-0.8v-4h-4.6v4h-0.9v-8.5h0.9v3.8h4.6v-3.8H187.6z"/>
		<path class="st4" d="M189.4,90.1c0.1-0.1,0.3-0.2,0.5-0.2c0.2,0,0.3,0.1,0.4,0.2c0.1,0.1,0.2,0.2,0.2,0.4c0,0.2-0.1,0.3-0.2,0.4
			c-0.1,0.1-0.3,0.2-0.4,0.2c-0.2,0-0.3-0.1-0.5-0.2c-0.1-0.1-0.2-0.2-0.2-0.4C189.2,90.3,189.3,90.2,189.4,90.1z M190.3,92.4V99
			h-0.9v-6.6H190.3z"/>
		<path class="st4" d="M196.4,97.9c0.4-0.3,0.6-0.7,0.7-1.2h0.9c-0.1,0.7-0.5,1.3-1,1.7c-0.5,0.4-1.2,0.6-2.1,0.6
			c-0.6,0-1.2-0.1-1.7-0.4c-0.5-0.3-0.9-0.7-1.1-1.2c-0.3-0.5-0.4-1.1-0.4-1.8c0-0.7,0.1-1.3,0.4-1.8c0.3-0.5,0.6-0.9,1.1-1.2
			c0.5-0.3,1-0.4,1.7-0.4c0.6,0,1.2,0.1,1.7,0.4c0.5,0.3,0.8,0.6,1.1,1.1c0.2,0.4,0.4,0.9,0.4,1.5c0,0.2,0,0.4,0,0.6h-5.4
			c0,0.6,0.1,1,0.3,1.4c0.2,0.4,0.5,0.6,0.9,0.8s0.7,0.3,1.1,0.3C195.5,98.4,196,98.2,196.4,97.9z M193.8,93.3
			c-0.4,0.2-0.6,0.4-0.9,0.8c-0.2,0.4-0.3,0.8-0.4,1.4h4.6c0-0.5-0.1-1-0.3-1.4s-0.5-0.6-0.8-0.8c-0.4-0.2-0.7-0.3-1.2-0.3
			C194.5,93,194.2,93.1,193.8,93.3z"/>
		<path class="st4" d="M201.4,92.7c0.4-0.3,0.9-0.4,1.5-0.4v0.9h-0.3c-0.6,0-1.2,0.2-1.6,0.5c-0.4,0.3-0.6,0.9-0.6,1.7V99h-0.9v-6.6
			h0.9v1.4C200.6,93.3,200.9,93,201.4,92.7z"/>
		<path class="st4" d="M208.5,92.9c0.5,0.3,0.8,0.8,1,1.4v-1.8h0.8V99h-0.8v-1.8c-0.2,0.6-0.5,1-1,1.4c-0.5,0.3-1,0.5-1.7,0.5
			c-0.6,0-1.1-0.1-1.6-0.4c-0.5-0.3-0.8-0.7-1.1-1.2c-0.3-0.5-0.4-1.1-0.4-1.8c0-0.7,0.1-1.3,0.4-1.8c0.3-0.5,0.6-0.9,1.1-1.2
			c0.5-0.3,1-0.4,1.6-0.4C207.4,92.4,208,92.5,208.5,92.9z M205.2,93.8c-0.4,0.5-0.7,1.1-0.7,1.9c0,0.8,0.2,1.4,0.7,1.9
			c0.4,0.5,1,0.7,1.8,0.7c0.5,0,0.9-0.1,1.3-0.3c0.4-0.2,0.7-0.5,0.9-0.9c0.2-0.4,0.3-0.9,0.3-1.4c0-0.5-0.1-1-0.3-1.4
			c-0.2-0.4-0.5-0.7-0.9-0.9c-0.4-0.2-0.8-0.3-1.3-0.3C206.3,93.1,205.7,93.3,205.2,93.8z"/>
		<path class="st4" d="M213.9,92.7c0.4-0.3,0.9-0.4,1.5-0.4v0.9h-0.3c-0.6,0-1.2,0.2-1.6,0.5c-0.4,0.3-0.6,0.9-0.6,1.7V99h-0.9v-6.6
			h0.9v1.4C213.1,93.3,213.4,93,213.9,92.7z"/>
		<path class="st4" d="M221.5,93c0.5,0.4,0.9,1,1,1.8h-0.9c-0.1-0.5-0.3-0.9-0.7-1.2c-0.4-0.3-0.9-0.5-1.5-0.5
			c-0.4,0-0.8,0.1-1.2,0.3c-0.4,0.2-0.6,0.5-0.9,0.9c-0.2,0.4-0.3,0.9-0.3,1.5c0,0.6,0.1,1.1,0.3,1.5c0.2,0.4,0.5,0.7,0.9,0.9
			c0.4,0.2,0.7,0.3,1.2,0.3c0.6,0,1.1-0.1,1.5-0.4c0.4-0.3,0.6-0.7,0.7-1.2h0.9c-0.1,0.7-0.5,1.3-1,1.8c-0.5,0.4-1.2,0.7-2.1,0.7
			c-0.6,0-1.2-0.1-1.7-0.4c-0.5-0.3-0.9-0.7-1.1-1.2c-0.3-0.5-0.4-1.1-0.4-1.8c0-0.7,0.1-1.3,0.4-1.8c0.3-0.5,0.6-0.9,1.1-1.2
			c0.5-0.3,1-0.4,1.7-0.4C220.3,92.4,220.9,92.6,221.5,93z"/>
		<path class="st4" d="M229.1,93.1c0.5,0.5,0.7,1.2,0.7,2.1V99H229v-3.8c0-0.7-0.2-1.3-0.5-1.6c-0.4-0.4-0.9-0.6-1.5-0.6
			c-0.7,0-1.2,0.2-1.6,0.6c-0.4,0.4-0.6,1-0.6,1.9V99H224v-8.9h0.9v3.9c0.2-0.6,0.5-1,0.9-1.3s0.9-0.4,1.5-0.4
			C228,92.3,228.7,92.6,229.1,93.1z"/>
		<path class="st4" d="M231.6,90.1c0.1-0.1,0.3-0.2,0.5-0.2c0.2,0,0.3,0.1,0.4,0.2c0.1,0.1,0.2,0.2,0.2,0.4c0,0.2-0.1,0.3-0.2,0.4
			c-0.1,0.1-0.3,0.2-0.4,0.2c-0.2,0-0.3-0.1-0.5-0.2c-0.1-0.1-0.2-0.2-0.2-0.4C231.4,90.3,231.5,90.2,231.6,90.1z M232.5,92.4V99
			h-0.9v-6.6H232.5z"/>
		<path class="st4" d="M239.3,93c0.5,0.4,0.9,1,1,1.8h-0.9c-0.1-0.5-0.3-0.9-0.7-1.2c-0.4-0.3-0.9-0.5-1.5-0.5
			c-0.4,0-0.8,0.1-1.2,0.3c-0.4,0.2-0.6,0.5-0.9,0.9c-0.2,0.4-0.3,0.9-0.3,1.5c0,0.6,0.1,1.1,0.3,1.5c0.2,0.4,0.5,0.7,0.9,0.9
			c0.4,0.2,0.7,0.3,1.2,0.3c0.6,0,1.1-0.1,1.5-0.4c0.4-0.3,0.6-0.7,0.7-1.2h0.9c-0.1,0.7-0.5,1.3-1,1.8c-0.5,0.4-1.2,0.7-2.1,0.7
			c-0.6,0-1.2-0.1-1.7-0.4c-0.5-0.3-0.9-0.7-1.1-1.2c-0.3-0.5-0.4-1.1-0.4-1.8c0-0.7,0.1-1.3,0.4-1.8c0.3-0.5,0.6-0.9,1.1-1.2
			c0.5-0.3,1-0.4,1.7-0.4C238,92.4,238.7,92.6,239.3,93z"/>
		<path class="st4" d="M246.2,92.9c0.5,0.3,0.8,0.8,1,1.4v-1.8h0.8V99h-0.8v-1.8c-0.2,0.6-0.5,1-1,1.4c-0.5,0.3-1,0.5-1.7,0.5
			c-0.6,0-1.1-0.1-1.6-0.4c-0.5-0.3-0.8-0.7-1.1-1.2c-0.3-0.5-0.4-1.1-0.4-1.8c0-0.7,0.1-1.3,0.4-1.8c0.3-0.5,0.6-0.9,1.1-1.2
			c0.5-0.3,1-0.4,1.6-0.4C245.2,92.4,245.8,92.5,246.2,92.9z M243,93.8c-0.4,0.5-0.7,1.1-0.7,1.9c0,0.8,0.2,1.4,0.7,1.9
			c0.4,0.5,1,0.7,1.8,0.7c0.5,0,0.9-0.1,1.3-0.3c0.4-0.2,0.7-0.5,0.9-0.9c0.2-0.4,0.3-0.9,0.3-1.4c0-0.5-0.1-1-0.3-1.4
			c-0.2-0.4-0.5-0.7-0.9-0.9c-0.4-0.2-0.8-0.3-1.3-0.3C244,93.1,243.4,93.3,243,93.8z"/>
		<path class="st4" d="M250.7,90.1V99h-0.9v-8.9H250.7z"/>
	</g>
	<g class="st3">
		<path class="st4" d="M195.1,111.9h-3.9l-0.8,2.1h-0.9l3.1-8.3h0.9l3.1,8.3h-0.9L195.1,111.9z M194.8,111.3l-1.7-4.6l-1.7,4.6
			H194.8z"/>
		<path class="st4" d="M203,107.8c0.5,0.3,0.8,0.7,1.1,1.2c0.3,0.5,0.4,1.1,0.4,1.8c0,0.7-0.1,1.3-0.4,1.8s-0.6,0.9-1.1,1.2
			c-0.5,0.3-1,0.4-1.6,0.4c-0.7,0-1.2-0.2-1.7-0.5s-0.8-0.8-1-1.4v4.9h-0.8v-9.6h0.8v1.8c0.2-0.6,0.5-1,1-1.4s1-0.5,1.7-0.5
			C202,107.4,202.5,107.5,203,107.8z M199.9,108.4c-0.4,0.2-0.7,0.5-0.9,0.9c-0.2,0.4-0.3,0.9-0.3,1.4c0,0.5,0.1,1,0.3,1.4
			c0.2,0.4,0.5,0.7,0.9,0.9c0.4,0.2,0.8,0.3,1.3,0.3c0.7,0,1.3-0.2,1.8-0.7c0.4-0.5,0.7-1.1,0.7-1.9c0-0.8-0.2-1.4-0.7-1.9
			c-0.4-0.5-1-0.7-1.8-0.7C200.7,108.1,200.3,108.2,199.9,108.4z"/>
		<path class="st4" d="M211.1,107.8c0.5,0.3,0.8,0.7,1.1,1.2c0.3,0.5,0.4,1.1,0.4,1.8c0,0.7-0.1,1.3-0.4,1.8s-0.6,0.9-1.1,1.2
			c-0.5,0.3-1,0.4-1.6,0.4c-0.7,0-1.2-0.2-1.7-0.5s-0.8-0.8-1-1.4v4.9H206v-9.6h0.8v1.8c0.2-0.6,0.5-1,1-1.4s1-0.5,1.7-0.5
			C210.1,107.4,210.6,107.5,211.1,107.8z M208,108.4c-0.4,0.2-0.7,0.5-0.9,0.9c-0.2,0.4-0.3,0.9-0.3,1.4c0,0.5,0.1,1,0.3,1.4
			c0.2,0.4,0.5,0.7,0.9,0.9c0.4,0.2,0.8,0.3,1.3,0.3c0.7,0,1.3-0.2,1.8-0.7c0.4-0.5,0.7-1.1,0.7-1.9c0-0.8-0.2-1.4-0.7-1.9
			c-0.4-0.5-1-0.7-1.8-0.7C208.8,108.1,208.4,108.2,208,108.4z"/>
		<path class="st4" d="M215.8,107.7c0.4-0.3,0.9-0.4,1.5-0.4v0.9h-0.3c-0.6,0-1.2,0.2-1.6,0.5c-0.4,0.3-0.6,0.9-0.6,1.7v3.6h-0.9
			v-6.6h0.9v1.4C215.1,108.3,215.4,108,215.8,107.7z"/>
		<path class="st4" d="M223.1,107.8c0.5,0.3,0.9,0.7,1.2,1.2c0.3,0.5,0.4,1.1,0.4,1.8c0,0.7-0.1,1.3-0.4,1.8
			c-0.3,0.5-0.7,0.9-1.2,1.2c-0.5,0.3-1,0.4-1.7,0.4s-1.2-0.1-1.7-0.4c-0.5-0.3-0.9-0.7-1.2-1.2s-0.4-1.1-0.4-1.8
			c0-0.7,0.1-1.3,0.4-1.8c0.3-0.5,0.7-0.9,1.2-1.2c0.5-0.3,1.1-0.4,1.7-0.4S222.7,107.5,223.1,107.8z M220.3,108.4
			c-0.4,0.2-0.7,0.5-0.9,0.9c-0.2,0.4-0.3,0.9-0.3,1.5c0,0.6,0.1,1.1,0.3,1.5c0.2,0.4,0.5,0.7,0.9,0.9c0.4,0.2,0.8,0.3,1.2,0.3
			c0.4,0,0.8-0.1,1.2-0.3c0.4-0.2,0.7-0.5,0.9-0.9c0.2-0.4,0.3-0.9,0.3-1.5c0-0.6-0.1-1.1-0.3-1.5c-0.2-0.4-0.5-0.7-0.9-0.9
			c-0.4-0.2-0.8-0.3-1.2-0.3C221,108.1,220.6,108.2,220.3,108.4z"/>
		<path class="st4" d="M228.7,113.1l2.2-5.6h0.9l-2.6,6.6h-1l-2.6-6.6h0.9L228.7,113.1z"/>
		<path class="st4" d="M237.3,107.9c0.5,0.3,0.8,0.8,1,1.4v-1.8h0.8v6.6h-0.8v-1.8c-0.2,0.6-0.5,1-1,1.4c-0.5,0.3-1,0.5-1.7,0.5
			c-0.6,0-1.1-0.1-1.6-0.4c-0.5-0.3-0.8-0.7-1.1-1.2c-0.3-0.5-0.4-1.1-0.4-1.8c0-0.7,0.1-1.3,0.4-1.8c0.3-0.5,0.6-0.9,1.1-1.2
			c0.5-0.3,1-0.4,1.6-0.4C236.3,107.4,236.9,107.5,237.3,107.9z M234.1,108.8c-0.4,0.5-0.7,1.1-0.7,1.9c0,0.8,0.2,1.4,0.7,1.9
			c0.4,0.5,1,0.7,1.8,0.7c0.5,0,0.9-0.1,1.3-0.3c0.4-0.2,0.7-0.5,0.9-0.9c0.2-0.4,0.3-0.9,0.3-1.4c0-0.5-0.1-1-0.3-1.4
			c-0.2-0.4-0.5-0.7-0.9-0.9c-0.4-0.2-0.8-0.3-1.3-0.3C235.1,108.1,234.5,108.3,234.1,108.8z"/>
		<path class="st4" d="M241.8,105.1v8.9H241v-8.9H241.8z"/>
	</g>
	<g class="st3">
		<path class="st4" d="M278.9,96.9h-3.9l-0.8,2.1h-0.9l3.1-8.3h0.9l3.1,8.3h-0.9L278.9,96.9z M278.7,96.3l-1.7-4.6l-1.7,4.6H278.7z"
			/>
		<path class="st4" d="M283.5,92.7c0.4-0.3,0.9-0.4,1.5-0.4v0.9h-0.3c-0.6,0-1.2,0.2-1.6,0.5c-0.4,0.3-0.6,0.9-0.6,1.7V99h-0.9v-6.6
			h0.9v1.4C282.8,93.3,283.1,93,283.5,92.7z"/>
		<path class="st4" d="M290.6,97.9c0.4-0.3,0.6-0.7,0.7-1.2h0.9c-0.1,0.7-0.5,1.3-1,1.7c-0.5,0.4-1.2,0.6-2.1,0.6
			c-0.6,0-1.2-0.1-1.7-0.4c-0.5-0.3-0.9-0.7-1.1-1.2c-0.3-0.5-0.4-1.1-0.4-1.8c0-0.7,0.1-1.3,0.4-1.8c0.3-0.5,0.6-0.9,1.1-1.2
			c0.5-0.3,1-0.4,1.7-0.4c0.6,0,1.2,0.1,1.7,0.4c0.5,0.3,0.8,0.6,1.1,1.1c0.2,0.4,0.4,0.9,0.4,1.5c0,0.2,0,0.4,0,0.6h-5.4
			c0,0.6,0.1,1,0.3,1.4c0.2,0.4,0.5,0.6,0.9,0.8s0.7,0.3,1.1,0.3C289.7,98.4,290.2,98.2,290.6,97.9z M287.9,93.3
			c-0.4,0.2-0.6,0.4-0.9,0.8c-0.2,0.4-0.3,0.8-0.4,1.4h4.6c0-0.5-0.1-1-0.3-1.4s-0.5-0.6-0.8-0.8c-0.4-0.2-0.7-0.3-1.2-0.3
			C288.7,93,288.3,93.1,287.9,93.3z"/>
		<path class="st4" d="M298.2,92.9c0.5,0.3,0.8,0.8,1,1.4v-1.8h0.8V99h-0.8v-1.8c-0.2,0.6-0.5,1-1,1.4c-0.5,0.3-1,0.5-1.7,0.5
			c-0.6,0-1.1-0.1-1.6-0.4c-0.5-0.3-0.8-0.7-1.1-1.2c-0.3-0.5-0.4-1.1-0.4-1.8c0-0.7,0.1-1.3,0.4-1.8c0.3-0.5,0.6-0.9,1.1-1.2
			c0.5-0.3,1-0.4,1.6-0.4C297.1,92.4,297.7,92.5,298.2,92.9z M294.9,93.8c-0.4,0.5-0.7,1.1-0.7,1.9c0,0.8,0.2,1.4,0.7,1.9
			c0.4,0.5,1,0.7,1.8,0.7c0.5,0,0.9-0.1,1.3-0.3c0.4-0.2,0.7-0.5,0.9-0.9c0.2-0.4,0.3-0.9,0.3-1.4c0-0.5-0.1-1-0.3-1.4
			c-0.2-0.4-0.5-0.7-0.9-0.9c-0.4-0.2-0.8-0.3-1.3-0.3C295.9,93.1,295.4,93.3,294.9,93.8z"/>
	</g>
	<g class="st3">
		<path class="st4" d="M266.1,111.9h-3.9l-0.8,2.1h-0.9l3.1-8.3h0.9l3.1,8.3h-0.9L266.1,111.9z M265.8,111.3l-1.7-4.6l-1.7,4.6
			H265.8z"/>
		<path class="st4" d="M274,107.8c0.5,0.3,0.8,0.7,1.1,1.2c0.3,0.5,0.4,1.1,0.4,1.8c0,0.7-0.1,1.3-0.4,1.8s-0.6,0.9-1.1,1.2
			c-0.5,0.3-1,0.4-1.6,0.4c-0.7,0-1.2-0.2-1.7-0.5s-0.8-0.8-1-1.4v4.9h-0.8v-9.6h0.8v1.8c0.2-0.6,0.5-1,1-1.4s1-0.5,1.7-0.5
			C273,107.4,273.5,107.5,274,107.8z M270.9,108.4c-0.4,0.2-0.7,0.5-0.9,0.9c-0.2,0.4-0.3,0.9-0.3,1.4c0,0.5,0.1,1,0.3,1.4
			c0.2,0.4,0.5,0.7,0.9,0.9c0.4,0.2,0.8,0.3,1.3,0.3c0.7,0,1.3-0.2,1.8-0.7c0.4-0.5,0.7-1.1,0.7-1.9c0-0.8-0.2-1.4-0.7-1.9
			c-0.4-0.5-1-0.7-1.8-0.7C271.7,108.1,271.3,108.2,270.9,108.4z"/>
		<path class="st4" d="M282.1,107.8c0.5,0.3,0.8,0.7,1.1,1.2c0.3,0.5,0.4,1.1,0.4,1.8c0,0.7-0.1,1.3-0.4,1.8s-0.6,0.9-1.1,1.2
			c-0.5,0.3-1,0.4-1.6,0.4c-0.7,0-1.2-0.2-1.7-0.5s-0.8-0.8-1-1.4v4.9H277v-9.6h0.8v1.8c0.2-0.6,0.5-1,1-1.4s1-0.5,1.7-0.5
			C281.1,107.4,281.6,107.5,282.1,107.8z M279,108.4c-0.4,0.2-0.7,0.5-0.9,0.9c-0.2,0.4-0.3,0.9-0.3,1.4c0,0.5,0.1,1,0.3,1.4
			c0.2,0.4,0.5,0.7,0.9,0.9c0.4,0.2,0.8,0.3,1.3,0.3c0.7,0,1.3-0.2,1.8-0.7c0.4-0.5,0.7-1.1,0.7-1.9c0-0.8-0.2-1.4-0.7-1.9
			c-0.4-0.5-1-0.7-1.8-0.7C279.8,108.1,279.4,108.2,279,108.4z"/>
		<path class="st4" d="M286.8,107.7c0.4-0.3,0.9-0.4,1.5-0.4v0.9h-0.3c-0.6,0-1.2,0.2-1.6,0.5c-0.4,0.3-0.6,0.9-0.6,1.7v3.6h-0.9
			v-6.6h0.9v1.4C286.1,108.3,286.4,108,286.8,107.7z"/>
		<path class="st4" d="M294.1,107.8c0.5,0.3,0.9,0.7,1.2,1.2c0.3,0.5,0.4,1.1,0.4,1.8c0,0.7-0.1,1.3-0.4,1.8
			c-0.3,0.5-0.7,0.9-1.2,1.2c-0.5,0.3-1,0.4-1.7,0.4s-1.2-0.1-1.7-0.4c-0.5-0.3-0.9-0.7-1.2-1.2s-0.4-1.1-0.4-1.8
			c0-0.7,0.1-1.3,0.4-1.8c0.3-0.5,0.7-0.9,1.2-1.2c0.5-0.3,1.1-0.4,1.7-0.4S293.7,107.5,294.1,107.8z M291.3,108.4
			c-0.4,0.2-0.7,0.5-0.9,0.9c-0.2,0.4-0.3,0.9-0.3,1.5c0,0.6,0.1,1.1,0.3,1.5c0.2,0.4,0.5,0.7,0.9,0.9c0.4,0.2,0.8,0.3,1.2,0.3
			c0.4,0,0.8-0.1,1.2-0.3c0.4-0.2,0.7-0.5,0.9-0.9c0.2-0.4,0.3-0.9,0.3-1.5c0-0.6-0.1-1.1-0.3-1.5c-0.2-0.4-0.5-0.7-0.9-0.9
			c-0.4-0.2-0.8-0.3-1.2-0.3C292,108.1,291.6,108.2,291.3,108.4z"/>
		<path class="st4" d="M299.7,113.1l2.2-5.6h0.9l-2.6,6.6h-1l-2.6-6.6h0.9L299.7,113.1z"/>
		<path class="st4" d="M308.3,107.9c0.5,0.3,0.8,0.8,1,1.4v-1.8h0.8v6.6h-0.8v-1.8c-0.2,0.6-0.5,1-1,1.4c-0.5,0.3-1,0.5-1.7,0.5
			c-0.6,0-1.1-0.1-1.6-0.4c-0.5-0.3-0.8-0.7-1.1-1.2c-0.3-0.5-0.4-1.1-0.4-1.8c0-0.7,0.1-1.3,0.4-1.8c0.3-0.5,0.6-0.9,1.1-1.2
			c0.5-0.3,1-0.4,1.6-0.4C307.3,107.4,307.9,107.5,308.3,107.9z M305.1,108.8c-0.4,0.5-0.7,1.1-0.7,1.9c0,0.8,0.2,1.4,0.7,1.9
			c0.4,0.5,1,0.7,1.8,0.7c0.5,0,0.9-0.1,1.3-0.3c0.4-0.2,0.7-0.5,0.9-0.9c0.2-0.4,0.3-0.9,0.3-1.4c0-0.5-0.1-1-0.3-1.4
			c-0.2-0.4-0.5-0.7-0.9-0.9c-0.4-0.2-0.8-0.3-1.3-0.3C306.1,108.1,305.5,108.3,305.1,108.8z"/>
		<path class="st4" d="M312.8,105.1v8.9H312v-8.9H312.8z"/>
	</g>
	<g class="st3">
		<path class="st4" d="M337.6,90.5l2.7,7.5l2.7-7.5h0.9l-3.1,8.5h-1l-3.1-8.5H337.6z"/>
		<path class="st4" d="M349.5,97.9c0.4-0.3,0.6-0.7,0.7-1.2h0.9c-0.1,0.7-0.5,1.3-1,1.7c-0.5,0.4-1.2,0.6-2.1,0.6
			c-0.6,0-1.2-0.1-1.7-0.4c-0.5-0.3-0.9-0.7-1.1-1.2c-0.3-0.5-0.4-1.1-0.4-1.8c0-0.7,0.1-1.3,0.4-1.8c0.3-0.5,0.6-0.9,1.1-1.2
			c0.5-0.3,1-0.4,1.7-0.4c0.6,0,1.2,0.1,1.7,0.4c0.5,0.3,0.8,0.6,1.1,1.1c0.2,0.4,0.4,0.9,0.4,1.5c0,0.2,0,0.4,0,0.6h-5.4
			c0,0.6,0.1,1,0.3,1.4c0.2,0.4,0.5,0.6,0.9,0.8s0.7,0.3,1.1,0.3C348.6,98.4,349.1,98.2,349.5,97.9z M346.9,93.3
			c-0.4,0.2-0.6,0.4-0.9,0.8c-0.2,0.4-0.3,0.8-0.4,1.4h4.6c0-0.5-0.1-1-0.3-1.4s-0.5-0.6-0.8-0.8c-0.4-0.2-0.7-0.3-1.2-0.3
			C347.6,93,347.2,93.1,346.9,93.3z"/>
		<path class="st4" d="M357.8,93.1c0.5,0.5,0.7,1.2,0.7,2.1V99h-0.8v-3.8c0-0.7-0.2-1.3-0.5-1.6c-0.4-0.4-0.9-0.6-1.5-0.6
			c-0.7,0-1.2,0.2-1.6,0.6c-0.4,0.4-0.6,1-0.6,1.9V99h-0.9v-6.6h0.9v1.6c0.2-0.6,0.5-1,0.9-1.3s0.9-0.4,1.5-0.4
			C356.7,92.3,357.3,92.6,357.8,93.1z"/>
		<path class="st4" d="M364.7,92.9c0.5,0.3,0.8,0.8,1,1.4v-4.1h0.8V99h-0.8v-1.8c-0.2,0.6-0.5,1-1,1.4c-0.5,0.3-1,0.5-1.7,0.5
			c-0.6,0-1.1-0.1-1.6-0.4c-0.5-0.3-0.8-0.7-1.1-1.2c-0.3-0.5-0.4-1.1-0.4-1.8c0-0.7,0.1-1.3,0.4-1.8c0.3-0.5,0.6-0.9,1.1-1.2
			c0.5-0.3,1-0.4,1.6-0.4C363.7,92.4,364.3,92.5,364.7,92.9z M361.5,93.8c-0.4,0.5-0.7,1.1-0.7,1.9c0,0.8,0.2,1.4,0.7,1.9
			c0.4,0.5,1,0.7,1.8,0.7c0.5,0,0.9-0.1,1.3-0.3c0.4-0.2,0.7-0.5,0.9-0.9c0.2-0.4,0.3-0.9,0.3-1.4c0-0.5-0.1-1-0.3-1.4
			c-0.2-0.4-0.5-0.7-0.9-0.9c-0.4-0.2-0.8-0.3-1.3-0.3C362.5,93.1,361.9,93.3,361.5,93.8z"/>
		<path class="st4" d="M373,92.8c0.5,0.3,0.9,0.7,1.2,1.2c0.3,0.5,0.4,1.1,0.4,1.8c0,0.7-0.1,1.3-0.4,1.8c-0.3,0.5-0.7,0.9-1.2,1.2
			c-0.5,0.3-1,0.4-1.7,0.4s-1.2-0.1-1.7-0.4c-0.5-0.3-0.9-0.7-1.2-1.2s-0.4-1.1-0.4-1.8c0-0.7,0.1-1.3,0.4-1.8
			c0.3-0.5,0.7-0.9,1.2-1.2c0.5-0.3,1.1-0.4,1.7-0.4S372.5,92.5,373,92.8z M370.1,93.4c-0.4,0.2-0.7,0.5-0.9,0.9
			c-0.2,0.4-0.3,0.9-0.3,1.5c0,0.6,0.1,1.1,0.3,1.5c0.2,0.4,0.5,0.7,0.9,0.9c0.4,0.2,0.8,0.3,1.2,0.3c0.4,0,0.8-0.1,1.2-0.3
			c0.4-0.2,0.7-0.5,0.9-0.9c0.2-0.4,0.3-0.9,0.3-1.5c0-0.6-0.1-1.1-0.3-1.5c-0.2-0.4-0.5-0.7-0.9-0.9c-0.4-0.2-0.8-0.3-1.2-0.3
			C370.9,93.1,370.5,93.2,370.1,93.4z"/>
		<path class="st4" d="M377.9,92.7c0.4-0.3,0.9-0.4,1.5-0.4v0.9h-0.3c-0.6,0-1.2,0.2-1.6,0.5c-0.4,0.3-0.6,0.9-0.6,1.7V99h-0.9v-6.6
			h0.9v1.4C377.1,93.3,377.4,93,377.9,92.7z"/>
	</g>
	<g class="st3">
		<path class="st4" d="M329.1,106.2v3.2h3.3v0.7h-3.3v3.2h3.7v0.7h-4.5v-8.5h4.5v0.7H329.1z"/>
		<path class="st4" d="M336.7,113.1l2.2-5.6h0.9l-2.6,6.6h-1l-2.6-6.6h0.9L336.7,113.1z"/>
		<path class="st4" d="M345.3,107.9c0.5,0.3,0.8,0.8,1,1.4v-1.8h0.8v6.6h-0.8v-1.8c-0.2,0.6-0.5,1-1,1.4c-0.5,0.3-1,0.5-1.7,0.5
			c-0.6,0-1.1-0.1-1.6-0.4c-0.5-0.3-0.8-0.7-1.1-1.2c-0.3-0.5-0.4-1.1-0.4-1.8c0-0.7,0.1-1.3,0.4-1.8c0.3-0.5,0.6-0.9,1.1-1.2
			c0.5-0.3,1-0.4,1.6-0.4C344.3,107.4,344.9,107.5,345.3,107.9z M342.1,108.8c-0.4,0.5-0.7,1.1-0.7,1.9c0,0.8,0.2,1.4,0.7,1.9
			c0.4,0.5,1,0.7,1.8,0.7c0.5,0,0.9-0.1,1.3-0.3c0.4-0.2,0.7-0.5,0.9-0.9c0.2-0.4,0.3-0.9,0.3-1.4c0-0.5-0.1-1-0.3-1.4
			c-0.2-0.4-0.5-0.7-0.9-0.9c-0.4-0.2-0.8-0.3-1.3-0.3C343.1,108.1,342.5,108.3,342.1,108.8z"/>
		<path class="st4" d="M349.8,105.1v8.9H349v-8.9H349.8z"/>
		<path class="st4" d="M357.3,107.4v6.6h-0.8v-1.6c-0.2,0.6-0.5,1-0.9,1.3s-0.9,0.4-1.5,0.4c-0.8,0-1.4-0.2-1.9-0.7
			c-0.5-0.5-0.7-1.2-0.7-2.1v-3.8h0.8v3.7c0,0.7,0.2,1.3,0.5,1.6s0.9,0.6,1.5,0.6c0.7,0,1.2-0.2,1.6-0.6c0.4-0.4,0.6-1,0.6-1.9v-3.5
			H357.3z"/>
		<path class="st4" d="M363.6,107.9c0.5,0.3,0.8,0.8,1,1.4v-1.8h0.8v6.6h-0.8v-1.8c-0.2,0.6-0.5,1-1,1.4c-0.5,0.3-1,0.5-1.7,0.5
			c-0.6,0-1.1-0.1-1.6-0.4c-0.5-0.3-0.8-0.7-1.1-1.2c-0.3-0.5-0.4-1.1-0.4-1.8c0-0.7,0.1-1.3,0.4-1.8c0.3-0.5,0.6-0.9,1.1-1.2
			c0.5-0.3,1-0.4,1.6-0.4C362.5,107.4,363.1,107.5,363.6,107.9z M360.3,108.8c-0.4,0.5-0.7,1.1-0.7,1.9c0,0.8,0.2,1.4,0.7,1.9
			c0.4,0.5,1,0.7,1.8,0.7c0.5,0,0.9-0.1,1.3-0.3c0.4-0.2,0.7-0.5,0.9-0.9c0.2-0.4,0.3-0.9,0.3-1.4c0-0.5-0.1-1-0.3-1.4
			c-0.2-0.4-0.5-0.7-0.9-0.9c-0.4-0.2-0.8-0.3-1.3-0.3C361.4,108.1,360.8,108.3,360.3,108.8z"/>
		<path class="st4" d="M370.2,113.3v0.7h-0.8c-0.6,0-1.1-0.2-1.4-0.5s-0.5-0.8-0.5-1.5v-3.9h-1v-0.7h1v-1.7h0.9v1.7h1.8v0.7h-1.8
			v3.9c0,0.5,0.1,0.8,0.3,1s0.5,0.3,0.9,0.3H370.2z"/>
		<path class="st4" d="M371.5,105.1c0.1-0.1,0.3-0.2,0.5-0.2c0.2,0,0.3,0.1,0.4,0.2c0.1,0.1,0.2,0.2,0.2,0.4c0,0.2-0.1,0.3-0.2,0.4
			c-0.1,0.1-0.3,0.2-0.4,0.2c-0.2,0-0.3-0.1-0.5-0.2c-0.1-0.1-0.2-0.2-0.2-0.4C371.4,105.3,371.4,105.2,371.5,105.1z M372.4,107.4
			v6.6h-0.9v-6.6H372.4z"/>
		<path class="st4" d="M378.9,107.8c0.5,0.3,0.9,0.7,1.2,1.2c0.3,0.5,0.4,1.1,0.4,1.8c0,0.7-0.1,1.3-0.4,1.8
			c-0.3,0.5-0.7,0.9-1.2,1.2c-0.5,0.3-1,0.4-1.7,0.4s-1.2-0.1-1.7-0.4c-0.5-0.3-0.9-0.7-1.2-1.2s-0.4-1.1-0.4-1.8
			c0-0.7,0.1-1.3,0.4-1.8c0.3-0.5,0.7-0.9,1.2-1.2c0.5-0.3,1.1-0.4,1.7-0.4S378.4,107.5,378.9,107.8z M376,108.4
			c-0.4,0.2-0.7,0.5-0.9,0.9c-0.2,0.4-0.3,0.9-0.3,1.5c0,0.6,0.1,1.1,0.3,1.5c0.2,0.4,0.5,0.7,0.9,0.9c0.4,0.2,0.8,0.3,1.2,0.3
			c0.4,0,0.8-0.1,1.2-0.3c0.4-0.2,0.7-0.5,0.9-0.9c0.2-0.4,0.3-0.9,0.3-1.5c0-0.6-0.1-1.1-0.3-1.5c-0.2-0.4-0.5-0.7-0.9-0.9
			c-0.4-0.2-0.8-0.3-1.2-0.3C376.8,108.1,376.4,108.2,376,108.4z"/>
		<path class="st4" d="M387.1,108.1c0.5,0.5,0.7,1.2,0.7,2.1v3.8H387v-3.8c0-0.7-0.2-1.3-0.5-1.6c-0.4-0.4-0.9-0.6-1.5-0.6
			c-0.7,0-1.2,0.2-1.6,0.6c-0.4,0.4-0.6,1-0.6,1.9v3.5H382v-6.6h0.9v1.6c0.2-0.6,0.5-1,0.9-1.3s0.9-0.4,1.5-0.4
			C386,107.3,386.6,107.6,387.1,108.1z"/>
	</g>
	<g class="st3">
		<path class="st4" d="M406.1,90.5v0.7h-3.7v3.2h3.2v0.7h-3.2V99h-0.9v-8.5H406.1z"/>
		<path class="st4" d="M407.4,90.1c0.1-0.1,0.3-0.2,0.5-0.2c0.2,0,0.3,0.1,0.4,0.2c0.1,0.1,0.2,0.2,0.2,0.4c0,0.2-0.1,0.3-0.2,0.4
			s-0.3,0.2-0.4,0.2c-0.2,0-0.3-0.1-0.5-0.2c-0.1-0.1-0.2-0.2-0.2-0.4C407.2,90.3,407.3,90.2,407.4,90.1z M408.3,92.4V99h-0.9v-6.6
			H408.3z"/>
		<path class="st4" d="M415.2,93.1c0.5,0.5,0.7,1.2,0.7,2.1V99h-0.8v-3.8c0-0.7-0.2-1.3-0.5-1.6s-0.9-0.6-1.5-0.6
			c-0.7,0-1.2,0.2-1.6,0.6s-0.6,1-0.6,1.9V99h-0.9v-6.6h0.9v1.6c0.2-0.6,0.5-1,0.9-1.3c0.4-0.3,0.9-0.4,1.5-0.4
			C414.2,92.3,414.8,92.6,415.2,93.1z"/>
		<path class="st4" d="M422.2,92.9c0.5,0.3,0.8,0.8,1,1.4v-1.8h0.8V99h-0.8v-1.8c-0.2,0.6-0.5,1-1,1.4s-1,0.5-1.7,0.5
			c-0.6,0-1.1-0.1-1.6-0.4c-0.5-0.3-0.8-0.7-1.1-1.2s-0.4-1.1-0.4-1.8c0-0.7,0.1-1.3,0.4-1.8c0.3-0.5,0.6-0.9,1.1-1.2
			c0.5-0.3,1-0.4,1.6-0.4C421.2,92.4,421.7,92.5,422.2,92.9z M418.9,93.8c-0.4,0.5-0.7,1.1-0.7,1.9c0,0.8,0.2,1.4,0.7,1.9
			c0.4,0.5,1,0.7,1.8,0.7c0.5,0,0.9-0.1,1.3-0.3c0.4-0.2,0.7-0.5,0.9-0.9c0.2-0.4,0.3-0.9,0.3-1.4c0-0.5-0.1-1-0.3-1.4
			c-0.2-0.4-0.5-0.7-0.9-0.9c-0.4-0.2-0.8-0.3-1.3-0.3C420,93.1,419.4,93.3,418.9,93.8z"/>
		<path class="st4" d="M430.9,93.1c0.5,0.5,0.7,1.2,0.7,2.1V99h-0.8v-3.8c0-0.7-0.2-1.3-0.5-1.6c-0.4-0.4-0.9-0.6-1.5-0.6
			c-0.7,0-1.2,0.2-1.6,0.6c-0.4,0.4-0.6,1-0.6,1.9V99h-0.9v-6.6h0.9v1.6c0.2-0.6,0.5-1,0.9-1.3c0.4-0.3,0.9-0.4,1.5-0.4
			C429.8,92.3,430.5,92.6,430.9,93.1z"/>
		<path class="st4" d="M438.4,93c0.5,0.4,0.9,1,1,1.8h-0.9c-0.1-0.5-0.3-0.9-0.7-1.2s-0.9-0.5-1.5-0.5c-0.4,0-0.8,0.1-1.2,0.3
			c-0.4,0.2-0.6,0.5-0.9,0.9c-0.2,0.4-0.3,0.9-0.3,1.5c0,0.6,0.1,1.1,0.3,1.5c0.2,0.4,0.5,0.7,0.9,0.9c0.4,0.2,0.7,0.3,1.2,0.3
			c0.6,0,1.1-0.1,1.5-0.4c0.4-0.3,0.6-0.7,0.7-1.2h0.9c-0.1,0.7-0.5,1.3-1,1.8c-0.5,0.4-1.2,0.7-2.1,0.7c-0.6,0-1.2-0.1-1.7-0.4
			c-0.5-0.3-0.9-0.7-1.1-1.2c-0.3-0.5-0.4-1.1-0.4-1.8c0-0.7,0.1-1.3,0.4-1.8c0.3-0.5,0.6-0.9,1.1-1.2c0.5-0.3,1-0.4,1.7-0.4
			C437.2,92.4,437.8,92.6,438.4,93z"/>
		<path class="st4" d="M440.9,90.1c0.1-0.1,0.3-0.2,0.5-0.2c0.2,0,0.3,0.1,0.4,0.2c0.1,0.1,0.2,0.2,0.2,0.4c0,0.2-0.1,0.3-0.2,0.4
			s-0.3,0.2-0.4,0.2c-0.2,0-0.3-0.1-0.5-0.2c-0.1-0.1-0.2-0.2-0.2-0.4C440.7,90.3,440.8,90.2,440.9,90.1z M441.8,92.4V99h-0.9v-6.6
			H441.8z"/>
		<path class="st4" d="M448,92.9c0.5,0.3,0.8,0.8,1,1.4v-1.8h0.8V99H449v-1.8c-0.2,0.6-0.5,1-1,1.4s-1,0.5-1.7,0.5
			c-0.6,0-1.1-0.1-1.6-0.4c-0.5-0.3-0.8-0.7-1.1-1.2s-0.4-1.1-0.4-1.8c0-0.7,0.1-1.3,0.4-1.8c0.3-0.5,0.6-0.9,1.1-1.2
			c0.5-0.3,1-0.4,1.6-0.4C447,92.4,447.6,92.5,448,92.9z M444.8,93.8c-0.4,0.5-0.7,1.1-0.7,1.9c0,0.8,0.2,1.4,0.7,1.9
			c0.4,0.5,1,0.7,1.8,0.7c0.5,0,0.9-0.1,1.3-0.3c0.4-0.2,0.7-0.5,0.9-0.9c0.2-0.4,0.3-0.9,0.3-1.4c0-0.5-0.1-1-0.3-1.4
			c-0.2-0.4-0.5-0.7-0.9-0.9c-0.4-0.2-0.8-0.3-1.3-0.3C445.8,93.1,445.2,93.3,444.8,93.8z"/>
		<path class="st4" d="M452.5,90.1V99h-0.9v-8.9H452.5z"/>
	</g>
	<g class="st3">
		<path class="st4" d="M406.1,111.9h-3.9l-0.8,2.1h-0.9l3.1-8.3h0.9l3.1,8.3h-0.9L406.1,111.9z M405.8,111.3l-1.7-4.6l-1.7,4.6
			H405.8z"/>
		<path class="st4" d="M414,107.8c0.5,0.3,0.8,0.7,1.1,1.2c0.3,0.5,0.4,1.1,0.4,1.8c0,0.7-0.1,1.3-0.4,1.8s-0.6,0.9-1.1,1.2
			c-0.5,0.3-1,0.4-1.6,0.4c-0.7,0-1.2-0.2-1.7-0.5s-0.8-0.8-1-1.4v4.9h-0.8v-9.6h0.8v1.8c0.2-0.6,0.5-1,1-1.4s1-0.5,1.7-0.5
			C413,107.4,413.5,107.5,414,107.8z M410.9,108.4c-0.4,0.2-0.7,0.5-0.9,0.9c-0.2,0.4-0.3,0.9-0.3,1.4c0,0.5,0.1,1,0.3,1.4
			c0.2,0.4,0.5,0.7,0.9,0.9c0.4,0.2,0.8,0.3,1.3,0.3c0.7,0,1.3-0.2,1.8-0.7c0.4-0.5,0.7-1.1,0.7-1.9c0-0.8-0.2-1.4-0.7-1.9
			c-0.4-0.5-1-0.7-1.8-0.7C411.7,108.1,411.3,108.2,410.9,108.4z"/>
		<path class="st4" d="M422.1,107.8c0.5,0.3,0.8,0.7,1.1,1.2c0.3,0.5,0.4,1.1,0.4,1.8c0,0.7-0.1,1.3-0.4,1.8s-0.6,0.9-1.1,1.2
			c-0.5,0.3-1,0.4-1.6,0.4c-0.7,0-1.2-0.2-1.7-0.5s-0.8-0.8-1-1.4v4.9H417v-9.6h0.8v1.8c0.2-0.6,0.5-1,1-1.4s1-0.5,1.7-0.5
			C421.1,107.4,421.6,107.5,422.1,107.8z M419,108.4c-0.4,0.2-0.7,0.5-0.9,0.9c-0.2,0.4-0.3,0.9-0.3,1.4c0,0.5,0.1,1,0.3,1.4
			c0.2,0.4,0.5,0.7,0.9,0.9c0.4,0.2,0.8,0.3,1.3,0.3c0.7,0,1.3-0.2,1.8-0.7c0.4-0.5,0.7-1.1,0.7-1.9c0-0.8-0.2-1.4-0.7-1.9
			c-0.4-0.5-1-0.7-1.8-0.7C419.8,108.1,419.4,108.2,419,108.4z"/>
		<path class="st4" d="M426.8,107.7c0.4-0.3,0.9-0.4,1.5-0.4v0.9h-0.3c-0.6,0-1.2,0.2-1.6,0.5s-0.6,0.9-0.6,1.7v3.6h-0.9v-6.6h0.9
			v1.4C426.1,108.3,426.4,108,426.8,107.7z"/>
		<path class="st4" d="M434.1,107.8c0.5,0.3,0.9,0.7,1.2,1.2c0.3,0.5,0.4,1.1,0.4,1.8c0,0.7-0.1,1.3-0.4,1.8s-0.7,0.9-1.2,1.2
			c-0.5,0.3-1,0.4-1.7,0.4s-1.2-0.1-1.7-0.4c-0.5-0.3-0.9-0.7-1.2-1.2s-0.4-1.1-0.4-1.8c0-0.7,0.1-1.3,0.4-1.8
			c0.3-0.5,0.7-0.9,1.2-1.2c0.5-0.3,1.1-0.4,1.7-0.4S433.7,107.5,434.1,107.8z M431.3,108.4c-0.4,0.2-0.7,0.5-0.9,0.9
			c-0.2,0.4-0.3,0.9-0.3,1.5c0,0.6,0.1,1.1,0.3,1.5c0.2,0.4,0.5,0.7,0.9,0.9c0.4,0.2,0.8,0.3,1.2,0.3c0.4,0,0.8-0.1,1.2-0.3
			c0.4-0.2,0.7-0.5,0.9-0.9c0.2-0.4,0.3-0.9,0.3-1.5c0-0.6-0.1-1.1-0.3-1.5c-0.2-0.4-0.5-0.7-0.9-0.9c-0.4-0.2-0.8-0.3-1.2-0.3
			C432,108.1,431.6,108.2,431.3,108.4z"/>
		<path class="st4" d="M439.7,113.1l2.2-5.6h0.9l-2.6,6.6h-1l-2.6-6.6h0.9L439.7,113.1z"/>
		<path class="st4" d="M448.3,107.9c0.5,0.3,0.8,0.8,1,1.4v-1.8h0.8v6.6h-0.8v-1.8c-0.2,0.6-0.5,1-1,1.4c-0.5,0.3-1,0.5-1.7,0.5
			c-0.6,0-1.1-0.1-1.6-0.4c-0.5-0.3-0.8-0.7-1.1-1.2c-0.3-0.5-0.4-1.1-0.4-1.8c0-0.7,0.1-1.3,0.4-1.8c0.3-0.5,0.6-0.9,1.1-1.2
			c0.5-0.3,1-0.4,1.6-0.4C447.3,107.4,447.9,107.5,448.3,107.9z M445.1,108.8c-0.4,0.5-0.7,1.1-0.7,1.9c0,0.8,0.2,1.4,0.7,1.9
			c0.4,0.5,1,0.7,1.8,0.7c0.5,0,0.9-0.1,1.3-0.3c0.4-0.2,0.7-0.5,0.9-0.9c0.2-0.4,0.3-0.9,0.3-1.4c0-0.5-0.1-1-0.3-1.4
			c-0.2-0.4-0.5-0.7-0.9-0.9c-0.4-0.2-0.8-0.3-1.3-0.3C446.1,108.1,445.5,108.3,445.1,108.8z"/>
		<path class="st4" d="M452.8,105.1v8.9H452v-8.9H452.8z"/>
	</g>
	<g class="st3">
		<path class="st4" d="M480.7,97.9c-0.2,0.3-0.5,0.6-0.8,0.8c-0.4,0.2-0.8,0.3-1.4,0.3c-0.5,0-1-0.1-1.5-0.3c-0.4-0.2-0.8-0.5-1-0.8
			s-0.4-0.7-0.4-1.2h0.9c0,0.2,0.1,0.5,0.3,0.7c0.2,0.2,0.4,0.5,0.7,0.6s0.6,0.2,1,0.2c0.5,0,0.9-0.1,1.2-0.4s0.4-0.7,0.4-1.1
			c0-0.4-0.1-0.7-0.3-0.9c-0.2-0.2-0.4-0.4-0.7-0.5c-0.3-0.1-0.7-0.3-1.1-0.4c-0.5-0.2-1-0.3-1.3-0.5s-0.6-0.4-0.8-0.7
			c-0.2-0.3-0.3-0.7-0.3-1.2c0-0.6,0.2-1.2,0.7-1.6c0.4-0.4,1.1-0.6,1.8-0.6c0.8,0,1.4,0.2,1.9,0.6c0.5,0.4,0.7,0.9,0.8,1.5h-0.9
			c-0.1-0.4-0.3-0.7-0.6-1c-0.3-0.3-0.7-0.4-1.3-0.4c-0.5,0-0.9,0.1-1.2,0.4s-0.4,0.6-0.4,1.1c0,0.4,0.1,0.7,0.3,0.9
			c0.2,0.2,0.4,0.4,0.7,0.5c0.3,0.1,0.6,0.3,1.1,0.4c0.5,0.2,1,0.3,1.3,0.5s0.6,0.4,0.8,0.7s0.3,0.7,0.3,1.3
			C480.9,97.2,480.8,97.6,480.7,97.9z"/>
		<path class="st4" d="M487.3,96.9h-3.9l-0.8,2.1h-0.9l3.1-8.3h0.9L489,99h-0.9L487.3,96.9z M487.1,96.3l-1.7-4.6l-1.7,4.6H487.1z"
			/>
		<path class="st4" d="M491,95.5V99h-0.9v-8.5h2.5c1,0,1.7,0.2,2.1,0.7c0.5,0.4,0.7,1,0.7,1.8c0,0.8-0.2,1.4-0.7,1.8
			s-1.2,0.6-2.1,0.6H491z M494.2,94.3c0.3-0.3,0.5-0.7,0.5-1.3c0-0.6-0.2-1-0.5-1.3c-0.3-0.3-0.8-0.5-1.6-0.5H491v3.5h1.6
			C493.4,94.8,493.9,94.6,494.2,94.3z"/>
		<path class="st4" d="M500.9,90.5V99H500v-8.5H500.9z"/>
		<path class="st4" d="M507.8,93.1c0.5,0.5,0.7,1.2,0.7,2.1V99h-0.8v-3.8c0-0.7-0.2-1.3-0.5-1.6s-0.9-0.6-1.5-0.6
			c-0.7,0-1.2,0.2-1.6,0.6s-0.6,1-0.6,1.9V99h-0.9v-6.6h0.9v1.6c0.2-0.6,0.5-1,0.9-1.3c0.4-0.3,0.9-0.4,1.5-0.4
			C506.7,92.3,507.3,92.6,507.8,93.1z"/>
		<path class="st4" d="M511.8,91c-0.2,0.2-0.4,0.6-0.4,1.1v0.3h1.6v0.7h-1.6V99h-0.8v-5.8h-1v-0.7h1v-0.3c0-0.7,0.2-1.3,0.6-1.7
			c0.4-0.4,1-0.5,1.9-0.5v0.7C512.5,90.7,512,90.8,511.8,91z"/>
		<path class="st4" d="M519,92.8c0.5,0.3,0.9,0.7,1.2,1.2c0.3,0.5,0.4,1.1,0.4,1.8c0,0.7-0.1,1.3-0.4,1.8c-0.3,0.5-0.7,0.9-1.2,1.2
			c-0.5,0.3-1,0.4-1.7,0.4s-1.2-0.1-1.7-0.4c-0.5-0.3-0.9-0.7-1.2-1.2s-0.4-1.1-0.4-1.8c0-0.7,0.1-1.3,0.4-1.8
			c0.3-0.5,0.7-0.9,1.2-1.2c0.5-0.3,1.1-0.4,1.7-0.4S518.5,92.5,519,92.8z M516.1,93.4c-0.4,0.2-0.7,0.5-0.9,0.9
			c-0.2,0.4-0.3,0.9-0.3,1.5c0,0.6,0.1,1.1,0.3,1.5c0.2,0.4,0.5,0.7,0.9,0.9c0.4,0.2,0.8,0.3,1.2,0.3c0.4,0,0.8-0.1,1.2-0.3
			c0.4-0.2,0.7-0.5,0.9-0.9c0.2-0.4,0.3-0.9,0.3-1.5c0-0.6-0.1-1.1-0.3-1.5c-0.2-0.4-0.5-0.7-0.9-0.9c-0.4-0.2-0.8-0.3-1.2-0.3
			C516.9,93.1,516.5,93.2,516.1,93.4z"/>
	</g>
	<g class="st3">
		<path class="st4" d="M477.8,105.5v5.1c0,0.9,0.2,1.6,0.6,2c0.4,0.4,0.9,0.6,1.6,0.6c0.7,0,1.2-0.2,1.6-0.6s0.6-1.1,0.6-2v-5.1h0.8
			v5.1c0,1.1-0.3,2-0.8,2.6c-0.6,0.6-1.3,0.9-2.2,0.9s-1.7-0.3-2.2-0.9c-0.6-0.6-0.8-1.4-0.8-2.6v-5.1H477.8z"/>
		<path class="st4" d="M489.9,107.8c0.5,0.3,0.8,0.7,1.1,1.2c0.3,0.5,0.4,1.1,0.4,1.8c0,0.7-0.1,1.3-0.4,1.8s-0.6,0.9-1.1,1.2
			c-0.5,0.3-1,0.4-1.6,0.4c-0.7,0-1.2-0.2-1.7-0.5s-0.8-0.8-1-1.4v4.9h-0.8v-9.6h0.8v1.8c0.2-0.6,0.5-1,1-1.4s1-0.5,1.7-0.5
			C488.9,107.4,489.4,107.5,489.9,107.8z M486.8,108.4c-0.4,0.2-0.7,0.5-0.9,0.9c-0.2,0.4-0.3,0.9-0.3,1.4c0,0.5,0.1,1,0.3,1.4
			c0.2,0.4,0.5,0.7,0.9,0.9c0.4,0.2,0.8,0.3,1.3,0.3c0.7,0,1.3-0.2,1.8-0.7c0.4-0.5,0.7-1.1,0.7-1.9c0-0.8-0.2-1.4-0.7-1.9
			c-0.4-0.5-1-0.7-1.8-0.7C487.6,108.1,487.2,108.2,486.8,108.4z"/>
		<path class="st4" d="M497.3,107.9c0.5,0.3,0.8,0.8,1,1.4v-4.1h0.8v8.9h-0.8v-1.8c-0.2,0.6-0.5,1-1,1.4c-0.5,0.3-1,0.5-1.7,0.5
			c-0.6,0-1.1-0.1-1.6-0.4c-0.5-0.3-0.8-0.7-1.1-1.2c-0.3-0.5-0.4-1.1-0.4-1.8c0-0.7,0.1-1.3,0.4-1.8c0.3-0.5,0.6-0.9,1.1-1.2
			c0.5-0.3,1-0.4,1.6-0.4C496.3,107.4,496.8,107.5,497.3,107.9z M494.1,108.8c-0.4,0.5-0.7,1.1-0.7,1.9c0,0.8,0.2,1.4,0.7,1.9
			c0.4,0.5,1,0.7,1.8,0.7c0.5,0,0.9-0.1,1.3-0.3c0.4-0.2,0.7-0.5,0.9-0.9c0.2-0.4,0.3-0.9,0.3-1.4c0-0.5-0.1-1-0.3-1.4
			c-0.2-0.4-0.5-0.7-0.9-0.9c-0.4-0.2-0.8-0.3-1.3-0.3C495.1,108.1,494.5,108.3,494.1,108.8z"/>
		<path class="st4" d="M505.4,107.9c0.5,0.3,0.8,0.8,1,1.4v-1.8h0.8v6.6h-0.8v-1.8c-0.2,0.6-0.5,1-1,1.4s-1,0.5-1.7,0.5
			c-0.6,0-1.1-0.1-1.6-0.4c-0.5-0.3-0.8-0.7-1.1-1.2s-0.4-1.1-0.4-1.8c0-0.7,0.1-1.3,0.4-1.8c0.3-0.5,0.6-0.9,1.1-1.2
			c0.5-0.3,1-0.4,1.6-0.4C504.4,107.4,504.9,107.5,505.4,107.9z M502.1,108.8c-0.4,0.5-0.7,1.1-0.7,1.9c0,0.8,0.2,1.4,0.7,1.9
			c0.4,0.5,1,0.7,1.8,0.7c0.5,0,0.9-0.1,1.3-0.3c0.4-0.2,0.7-0.5,0.9-0.9c0.2-0.4,0.3-0.9,0.3-1.4c0-0.5-0.1-1-0.3-1.4
			c-0.2-0.4-0.5-0.7-0.9-0.9c-0.4-0.2-0.8-0.3-1.3-0.3C503.2,108.1,502.6,108.3,502.1,108.8z"/>
		<path class="st4" d="M512,113.3v0.7h-0.8c-0.6,0-1.1-0.2-1.4-0.5c-0.3-0.3-0.5-0.8-0.5-1.5v-3.9h-1v-0.7h1v-1.7h0.9v1.7h1.8v0.7
			h-1.8v3.9c0,0.5,0.1,0.8,0.3,1s0.5,0.3,0.9,0.3H512z"/>
		<path class="st4" d="M517.7,112.9c0.4-0.3,0.6-0.7,0.7-1.2h0.9c-0.1,0.7-0.5,1.3-1,1.7c-0.5,0.4-1.2,0.6-2.1,0.6
			c-0.6,0-1.2-0.1-1.7-0.4c-0.5-0.3-0.9-0.7-1.1-1.2c-0.3-0.5-0.4-1.1-0.4-1.8c0-0.7,0.1-1.3,0.4-1.8c0.3-0.5,0.7-0.9,1.1-1.2
			c0.5-0.3,1-0.4,1.7-0.4c0.6,0,1.2,0.1,1.7,0.4c0.5,0.3,0.8,0.6,1.1,1.1s0.4,0.9,0.4,1.5c0,0.2,0,0.4,0,0.6h-5.4
			c0,0.6,0.1,1,0.3,1.4c0.2,0.4,0.5,0.6,0.9,0.8c0.4,0.2,0.7,0.3,1.1,0.3C516.8,113.4,517.3,113.2,517.7,112.9z M515.1,108.3
			c-0.4,0.2-0.6,0.4-0.9,0.8s-0.3,0.8-0.4,1.4h4.6c0-0.5-0.1-1-0.3-1.4s-0.5-0.6-0.8-0.8c-0.4-0.2-0.7-0.3-1.2-0.3
			C515.8,108,515.4,108.1,515.1,108.3z"/>
	</g>
	<g class="st3">
		<path class="st4" d="M539.6,99l-2.3-3.5h-1.4V99h-0.9v-8.5h2.6c1,0,1.7,0.2,2.1,0.7c0.5,0.4,0.7,1.1,0.7,1.8
			c0,0.7-0.2,1.3-0.6,1.7c-0.4,0.4-1,0.7-1.7,0.7l2.4,3.6H539.6z M535.9,94.8h1.7c1.4,0,2-0.6,2-1.8c0-1.2-0.7-1.8-2-1.8h-1.7V94.8z
			"/>
		<path class="st4" d="M546.2,97.9c0.4-0.3,0.6-0.7,0.7-1.2h0.9c-0.1,0.7-0.5,1.3-1,1.7c-0.5,0.4-1.2,0.6-2.1,0.6
			c-0.6,0-1.2-0.1-1.7-0.4c-0.5-0.3-0.9-0.7-1.1-1.2c-0.3-0.5-0.4-1.1-0.4-1.8c0-0.7,0.1-1.3,0.4-1.8c0.3-0.5,0.6-0.9,1.1-1.2
			c0.5-0.3,1-0.4,1.7-0.4c0.6,0,1.2,0.1,1.7,0.4c0.5,0.3,0.8,0.6,1.1,1.1s0.4,0.9,0.4,1.5c0,0.2,0,0.4,0,0.6h-5.4
			c0,0.6,0.1,1,0.3,1.4c0.2,0.4,0.5,0.6,0.9,0.8s0.7,0.3,1.1,0.3C545.3,98.4,545.8,98.2,546.2,97.9z M543.6,93.3
			c-0.4,0.2-0.6,0.4-0.9,0.8c-0.2,0.4-0.3,0.8-0.4,1.4h4.6c0-0.5-0.1-1-0.3-1.4s-0.5-0.6-0.8-0.8c-0.4-0.2-0.7-0.3-1.2-0.3
			C544.4,93,544,93.1,543.6,93.3z"/>
		<path class="st4" d="M553.8,92.9c0.5,0.3,0.8,0.8,1,1.3v-1.7h0.8v9.6h-0.8v-4.8c-0.2,0.6-0.5,1-1,1.3c-0.5,0.3-1,0.5-1.6,0.5
			c-0.6,0-1.1-0.1-1.6-0.4c-0.5-0.3-0.8-0.7-1.1-1.2s-0.4-1.1-0.4-1.8s0.1-1.3,0.4-1.8c0.3-0.5,0.6-0.9,1.1-1.2
			c0.5-0.3,1-0.4,1.6-0.4C552.8,92.4,553.4,92.5,553.8,92.9z M550.6,93.8c-0.4,0.5-0.7,1.1-0.7,1.9c0,0.8,0.2,1.5,0.7,1.9
			c0.4,0.5,1,0.7,1.8,0.7c0.5,0,0.9-0.1,1.2-0.3s0.7-0.5,0.9-0.9c0.2-0.4,0.3-0.9,0.3-1.4c0-0.5-0.1-1-0.3-1.4
			c-0.2-0.4-0.5-0.7-0.9-0.9s-0.8-0.3-1.2-0.3C551.6,93.1,551,93.3,550.6,93.8z"/>
		<path class="st4" d="M563.1,92.4V99h-0.8v-1.6c-0.2,0.6-0.5,1-0.9,1.3c-0.4,0.3-0.9,0.4-1.5,0.4c-0.8,0-1.4-0.2-1.9-0.7
			c-0.5-0.5-0.7-1.2-0.7-2.1v-3.8h0.8v3.7c0,0.7,0.2,1.3,0.5,1.6c0.4,0.4,0.9,0.6,1.5,0.6c0.7,0,1.2-0.2,1.6-0.6
			c0.4-0.4,0.6-1,0.6-1.9v-3.5H563.1z"/>
		<path class="st4" d="M564.9,90.1c0.1-0.1,0.3-0.2,0.5-0.2c0.2,0,0.3,0.1,0.4,0.2c0.1,0.1,0.2,0.2,0.2,0.4c0,0.2-0.1,0.3-0.2,0.4
			c-0.1,0.1-0.3,0.2-0.4,0.2c-0.2,0-0.3-0.1-0.5-0.2c-0.1-0.1-0.2-0.2-0.2-0.4C564.8,90.3,564.8,90.2,564.9,90.1z M565.8,92.4V99
			h-0.9v-6.6H565.8z"/>
		<path class="st4" d="M571.3,92.9c0.4,0.4,0.7,0.9,0.8,1.5h-0.8c0-0.4-0.2-0.8-0.5-1c-0.3-0.3-0.7-0.4-1.2-0.4
			c-0.4,0-0.8,0.1-1,0.3s-0.4,0.5-0.4,0.8c0,0.3,0.1,0.5,0.2,0.6s0.3,0.3,0.6,0.4s0.5,0.2,0.9,0.3c0.5,0.1,0.9,0.2,1.2,0.3
			s0.5,0.3,0.8,0.5s0.3,0.6,0.3,1c0,0.5-0.2,0.9-0.6,1.3c-0.4,0.3-0.9,0.5-1.5,0.5c-0.8,0-1.4-0.2-1.8-0.6s-0.8-0.9-0.9-1.5h0.8
			c0,0.4,0.2,0.8,0.6,1.1c0.3,0.3,0.8,0.4,1.3,0.4c0.4,0,0.7-0.1,1-0.3s0.3-0.5,0.3-0.8c0-0.3-0.1-0.5-0.2-0.7
			c-0.2-0.2-0.4-0.3-0.6-0.4c-0.2-0.1-0.6-0.2-1-0.3c-0.5-0.1-0.9-0.2-1.1-0.3c-0.3-0.1-0.5-0.3-0.7-0.5c-0.2-0.2-0.3-0.6-0.3-1
			c0-0.5,0.2-1,0.6-1.3c0.4-0.3,0.9-0.5,1.6-0.5C570.3,92.4,570.9,92.6,571.3,92.9z"/>
		<path class="st4" d="M573.7,90.1c0.1-0.1,0.3-0.2,0.5-0.2c0.2,0,0.3,0.1,0.4,0.2c0.1,0.1,0.2,0.2,0.2,0.4c0,0.2-0.1,0.3-0.2,0.4
			c-0.1,0.1-0.3,0.2-0.4,0.2c-0.2,0-0.3-0.1-0.5-0.2c-0.1-0.1-0.2-0.2-0.2-0.4C573.5,90.3,573.6,90.2,573.7,90.1z M574.6,92.4V99
			h-0.9v-6.6H574.6z"/>
		<path class="st4" d="M579.4,98.3V99h-0.8c-0.6,0-1.1-0.2-1.4-0.5s-0.5-0.8-0.5-1.5v-3.9h-1v-0.7h1v-1.7h0.9v1.7h1.8v0.7h-1.8V97
			c0,0.5,0.1,0.8,0.3,1s0.5,0.3,0.9,0.3H579.4z"/>
		<path class="st4" d="M580.7,90.1c0.1-0.1,0.3-0.2,0.5-0.2c0.2,0,0.3,0.1,0.4,0.2c0.1,0.1,0.2,0.2,0.2,0.4c0,0.2-0.1,0.3-0.2,0.4
			c-0.1,0.1-0.3,0.2-0.4,0.2c-0.2,0-0.3-0.1-0.5-0.2c-0.1-0.1-0.2-0.2-0.2-0.4C580.5,90.3,580.6,90.2,580.7,90.1z M581.6,92.4V99
			h-0.9v-6.6H581.6z"/>
		<path class="st4" d="M588.1,92.8c0.5,0.3,0.9,0.7,1.2,1.2c0.3,0.5,0.4,1.1,0.4,1.8c0,0.7-0.1,1.3-0.4,1.8
			c-0.3,0.5-0.7,0.9-1.2,1.2c-0.5,0.3-1,0.4-1.7,0.4s-1.2-0.1-1.7-0.4c-0.5-0.3-0.9-0.7-1.2-1.2c-0.3-0.5-0.4-1.1-0.4-1.8
			c0-0.7,0.1-1.3,0.4-1.8c0.3-0.5,0.7-0.9,1.2-1.2c0.5-0.3,1.1-0.4,1.7-0.4S587.6,92.5,588.1,92.8z M585.2,93.4
			c-0.4,0.2-0.7,0.5-0.9,0.9c-0.2,0.4-0.3,0.9-0.3,1.5c0,0.6,0.1,1.1,0.3,1.5c0.2,0.4,0.5,0.7,0.9,0.9c0.4,0.2,0.8,0.3,1.2,0.3
			c0.4,0,0.8-0.1,1.2-0.3c0.4-0.2,0.7-0.5,0.9-0.9c0.2-0.4,0.3-0.9,0.3-1.5c0-0.6-0.1-1.1-0.3-1.5c-0.2-0.4-0.5-0.7-0.9-0.9
			c-0.4-0.2-0.8-0.3-1.2-0.3C585.9,93.1,585.5,93.2,585.2,93.4z"/>
		<path class="st4" d="M596.3,93.1c0.5,0.5,0.7,1.2,0.7,2.1V99h-0.8v-3.8c0-0.7-0.2-1.3-0.5-1.6c-0.4-0.4-0.9-0.6-1.5-0.6
			c-0.7,0-1.2,0.2-1.6,0.6s-0.6,1-0.6,1.9V99h-0.9v-6.6h0.9v1.6c0.2-0.6,0.5-1,0.9-1.3c0.4-0.3,0.9-0.4,1.5-0.4
			C595.2,92.3,595.8,92.6,596.3,93.1z"/>
	</g>
	<g class="st3">
		<path class="st4" d="M607.3,90.5V99h-0.9v-8.5H607.3z"/>
		<path class="st4" d="M614.1,90.5v0.7h-2.4V99h-0.8v-7.8h-2.4v-0.7H614.1z"/>
		<path class="st4" d="M624.6,91.2c0.7,0.5,1.1,1.2,1.4,2h-0.9c-0.2-0.6-0.6-1.1-1.1-1.5c-0.5-0.4-1.2-0.5-1.9-0.5
			c-0.6,0-1.1,0.1-1.6,0.4c-0.5,0.3-0.9,0.7-1.1,1.2c-0.3,0.5-0.4,1.2-0.4,1.9s0.1,1.3,0.4,1.9c0.3,0.5,0.6,0.9,1.1,1.2
			c0.5,0.3,1,0.4,1.6,0.4c0.8,0,1.4-0.2,1.9-0.5c0.5-0.4,0.9-0.8,1.1-1.5h0.9c-0.3,0.9-0.7,1.5-1.4,2s-1.5,0.7-2.5,0.7
			c-0.8,0-1.5-0.2-2.1-0.6c-0.6-0.4-1.1-0.9-1.4-1.5s-0.5-1.4-0.5-2.2c0-0.8,0.2-1.6,0.5-2.2s0.8-1.2,1.4-1.5
			c0.6-0.4,1.3-0.5,2.1-0.5C623.1,90.5,623.9,90.7,624.6,91.2z"/>
		<path class="st4" d="M632.2,92.8c0.5,0.3,0.9,0.7,1.2,1.2c0.3,0.5,0.4,1.1,0.4,1.8c0,0.7-0.1,1.3-0.4,1.8s-0.7,0.9-1.2,1.2
			c-0.5,0.3-1,0.4-1.7,0.4s-1.2-0.1-1.7-0.4c-0.5-0.3-0.9-0.7-1.2-1.2s-0.4-1.1-0.4-1.8c0-0.7,0.1-1.3,0.4-1.8
			c0.3-0.5,0.7-0.9,1.2-1.2c0.5-0.3,1.1-0.4,1.7-0.4S631.7,92.5,632.2,92.8z M629.3,93.4c-0.4,0.2-0.7,0.5-0.9,0.9
			c-0.2,0.4-0.3,0.9-0.3,1.5c0,0.6,0.1,1.1,0.3,1.5c0.2,0.4,0.5,0.7,0.9,0.9c0.4,0.2,0.8,0.3,1.2,0.3c0.4,0,0.8-0.1,1.2-0.3
			c0.4-0.2,0.7-0.5,0.9-0.9c0.2-0.4,0.3-0.9,0.3-1.5c0-0.6-0.1-1.1-0.3-1.5c-0.2-0.4-0.5-0.7-0.9-0.9c-0.4-0.2-0.8-0.3-1.2-0.3
			C630,93.1,629.6,93.2,629.3,93.4z"/>
		<path class="st4" d="M638.9,92.9c0.4,0.4,0.7,0.9,0.8,1.5h-0.8c0-0.4-0.2-0.8-0.5-1c-0.3-0.3-0.7-0.4-1.2-0.4
			c-0.4,0-0.8,0.1-1,0.3s-0.4,0.5-0.4,0.8c0,0.3,0.1,0.5,0.2,0.6s0.3,0.3,0.6,0.4s0.5,0.2,0.9,0.3c0.5,0.1,0.9,0.2,1.2,0.3
			s0.5,0.3,0.8,0.5s0.3,0.6,0.3,1c0,0.5-0.2,0.9-0.6,1.3c-0.4,0.3-0.9,0.5-1.5,0.5c-0.8,0-1.4-0.2-1.8-0.6c-0.5-0.4-0.8-0.9-0.9-1.5
			h0.8c0,0.4,0.2,0.8,0.6,1.1c0.3,0.3,0.8,0.4,1.3,0.4c0.4,0,0.7-0.1,1-0.3c0.2-0.2,0.3-0.5,0.3-0.8c0-0.3-0.1-0.5-0.2-0.7
			s-0.4-0.3-0.6-0.4c-0.2-0.1-0.6-0.2-1-0.3c-0.5-0.1-0.9-0.2-1.1-0.3c-0.3-0.1-0.5-0.3-0.7-0.5s-0.3-0.6-0.3-1c0-0.5,0.2-1,0.6-1.3
			c0.4-0.3,0.9-0.5,1.6-0.5C637.9,92.4,638.5,92.6,638.9,92.9z"/>
		<path class="st4" d="M644.3,98.3V99h-0.8c-0.6,0-1.1-0.2-1.4-0.5c-0.3-0.3-0.5-0.8-0.5-1.5v-3.9h-1v-0.7h1v-1.7h0.9v1.7h1.8v0.7
			h-1.8V97c0,0.5,0.1,0.8,0.3,1s0.5,0.3,0.9,0.3H644.3z"/>
		<path class="st4" d="M657,90.7V99h-0.8v-6.9l-2.9,6.9h-0.8l-2.9-6.9V99h-0.9v-8.3h1l3.1,7.2l3.1-7.2H657z"/>
		<path class="st4" d="M663.3,92.9c0.5,0.3,0.8,0.8,1,1.4v-1.8h0.8v6.7c0,0.6-0.1,1.1-0.4,1.6c-0.3,0.5-0.6,0.8-1.1,1.1
			s-1,0.4-1.6,0.4c-0.9,0-1.6-0.2-2.1-0.6s-0.9-1-1.1-1.7h0.8c0.1,0.5,0.4,0.9,0.8,1.1c0.4,0.3,0.9,0.4,1.5,0.4
			c0.4,0,0.8-0.1,1.1-0.3c0.3-0.2,0.6-0.4,0.8-0.8c0.2-0.4,0.3-0.8,0.3-1.2v-2c-0.2,0.6-0.5,1-1,1.4c-0.5,0.3-1,0.5-1.7,0.5
			c-0.6,0-1.1-0.1-1.6-0.4c-0.5-0.3-0.8-0.7-1.1-1.2c-0.3-0.5-0.4-1.1-0.4-1.8c0-0.7,0.1-1.3,0.4-1.8c0.3-0.5,0.6-0.9,1.1-1.2
			c0.5-0.3,1-0.4,1.6-0.4C662.3,92.4,662.8,92.5,663.3,92.9z M660,93.8c-0.4,0.5-0.7,1.1-0.7,1.9c0,0.8,0.2,1.4,0.7,1.9
			c0.4,0.5,1,0.7,1.8,0.7c0.5,0,0.9-0.1,1.3-0.3c0.4-0.2,0.7-0.5,0.9-0.9c0.2-0.4,0.3-0.9,0.3-1.4c0-0.5-0.1-1-0.3-1.4
			c-0.2-0.4-0.5-0.7-0.9-0.9c-0.4-0.2-0.8-0.3-1.3-0.3C661.1,93.1,660.5,93.3,660,93.8z"/>
		<path class="st4" d="M676.7,93.1c0.5,0.5,0.7,1.2,0.7,2.1V99h-0.8v-3.8c0-0.7-0.2-1.2-0.5-1.6c-0.3-0.4-0.8-0.6-1.4-0.6
			c-0.6,0-1.1,0.2-1.5,0.6c-0.4,0.4-0.6,1-0.6,1.8V99h-0.8v-3.8c0-0.7-0.2-1.2-0.5-1.6s-0.8-0.6-1.4-0.6c-0.6,0-1.1,0.2-1.5,0.6
			c-0.4,0.4-0.6,1-0.6,1.8V99h-0.9v-6.6h0.9V94c0.2-0.6,0.4-1,0.9-1.3c0.4-0.3,0.9-0.4,1.5-0.4c0.6,0,1.1,0.2,1.5,0.5
			s0.7,0.8,0.9,1.3c0.2-0.6,0.5-1,0.9-1.3s0.9-0.5,1.5-0.5C675.6,92.3,676.2,92.6,676.7,93.1z"/>
		<path class="st4" d="M682.1,98.3V99h-0.8c-0.6,0-1.1-0.2-1.4-0.5c-0.3-0.3-0.5-0.8-0.5-1.5v-3.9h-1v-0.7h1v-1.7h0.9v1.7h1.8v0.7
			h-1.8V97c0,0.5,0.1,0.8,0.3,1s0.5,0.3,0.9,0.3H682.1z"/>
		<path class="st4" d="M684.1,97.9V99H683v-1.1H684.1z"/>
	</g>
	<g class="st3">
		<path class="st4" d="M616.3,105.5l2.7,7.5l2.7-7.5h0.9l-3.1,8.5h-1l-3.1-8.5H616.3z"/>
		<path class="st4" d="M628.3,107.9c0.5,0.3,0.8,0.8,1,1.4v-1.8h0.8v6.6h-0.8v-1.8c-0.2,0.6-0.5,1-1,1.4c-0.5,0.3-1,0.5-1.7,0.5
			c-0.6,0-1.1-0.1-1.6-0.4c-0.5-0.3-0.8-0.7-1.1-1.2c-0.3-0.5-0.4-1.1-0.4-1.8c0-0.7,0.1-1.3,0.4-1.8c0.3-0.5,0.6-0.9,1.1-1.2
			c0.5-0.3,1-0.4,1.6-0.4C627.3,107.4,627.9,107.5,628.3,107.9z M625.1,108.8c-0.4,0.5-0.7,1.1-0.7,1.9c0,0.8,0.2,1.4,0.7,1.9
			c0.4,0.5,1,0.7,1.8,0.7c0.5,0,0.9-0.1,1.3-0.3c0.4-0.2,0.7-0.5,0.9-0.9c0.2-0.4,0.3-0.9,0.3-1.4c0-0.5-0.1-1-0.3-1.4
			c-0.2-0.4-0.5-0.7-0.9-0.9c-0.4-0.2-0.8-0.3-1.3-0.3C626.1,108.1,625.5,108.3,625.1,108.8z"/>
		<path class="st4" d="M632.8,105.1v8.9h-0.9v-8.9H632.8z"/>
		<path class="st4" d="M634.6,105.1c0.1-0.1,0.3-0.2,0.5-0.2c0.2,0,0.3,0.1,0.4,0.2c0.1,0.1,0.2,0.2,0.2,0.4c0,0.2-0.1,0.3-0.2,0.4
			c-0.1,0.1-0.3,0.2-0.4,0.2c-0.2,0-0.3-0.1-0.5-0.2s-0.2-0.2-0.2-0.4C634.4,105.3,634.5,105.2,634.6,105.1z M635.5,107.4v6.6h-0.9
			v-6.6H635.5z"/>
		<path class="st4" d="M641.7,107.9c0.5,0.3,0.8,0.8,1,1.4v-4.1h0.8v8.9h-0.8v-1.8c-0.2,0.6-0.5,1-1,1.4c-0.5,0.3-1,0.5-1.7,0.5
			c-0.6,0-1.1-0.1-1.6-0.4c-0.5-0.3-0.8-0.7-1.1-1.2c-0.3-0.5-0.4-1.1-0.4-1.8c0-0.7,0.1-1.3,0.4-1.8c0.3-0.5,0.6-0.9,1.1-1.2
			c0.5-0.3,1-0.4,1.6-0.4C640.7,107.4,641.3,107.5,641.7,107.9z M638.5,108.8c-0.4,0.5-0.7,1.1-0.7,1.9c0,0.8,0.2,1.4,0.7,1.9
			c0.4,0.5,1,0.7,1.8,0.7c0.5,0,0.9-0.1,1.3-0.3c0.4-0.2,0.7-0.5,0.9-0.9c0.2-0.4,0.3-0.9,0.3-1.4c0-0.5-0.1-1-0.3-1.4
			c-0.2-0.4-0.5-0.7-0.9-0.9c-0.4-0.2-0.8-0.3-1.3-0.3C639.5,108.1,638.9,108.3,638.5,108.8z"/>
		<path class="st4" d="M649.8,107.9c0.5,0.3,0.8,0.8,1,1.4v-1.8h0.8v6.6h-0.8v-1.8c-0.2,0.6-0.5,1-1,1.4s-1,0.5-1.7,0.5
			c-0.6,0-1.1-0.1-1.6-0.4c-0.5-0.3-0.8-0.7-1.1-1.2s-0.4-1.1-0.4-1.8c0-0.7,0.1-1.3,0.4-1.8c0.3-0.5,0.6-0.9,1.1-1.2
			c0.5-0.3,1-0.4,1.6-0.4C648.8,107.4,649.4,107.5,649.8,107.9z M646.6,108.8c-0.4,0.5-0.7,1.1-0.7,1.9c0,0.8,0.2,1.4,0.7,1.9
			c0.4,0.5,1,0.7,1.8,0.7c0.5,0,0.9-0.1,1.3-0.3c0.4-0.2,0.7-0.5,0.9-0.9c0.2-0.4,0.3-0.9,0.3-1.4c0-0.5-0.1-1-0.3-1.4
			c-0.2-0.4-0.5-0.7-0.9-0.9c-0.4-0.2-0.8-0.3-1.3-0.3C647.6,108.1,647,108.3,646.6,108.8z"/>
		<path class="st4" d="M656.4,113.3v0.7h-0.8c-0.6,0-1.1-0.2-1.4-0.5c-0.3-0.3-0.5-0.8-0.5-1.5v-3.9h-1v-0.7h1v-1.7h0.9v1.7h1.8v0.7
			h-1.8v3.9c0,0.5,0.1,0.8,0.3,1s0.5,0.3,0.9,0.3H656.4z"/>
		<path class="st4" d="M657.8,105.1c0.1-0.1,0.3-0.2,0.5-0.2c0.2,0,0.3,0.1,0.4,0.2c0.1,0.1,0.2,0.2,0.2,0.4c0,0.2-0.1,0.3-0.2,0.4
			c-0.1,0.1-0.3,0.2-0.4,0.2c-0.2,0-0.3-0.1-0.5-0.2s-0.2-0.2-0.2-0.4C657.6,105.3,657.7,105.2,657.8,105.1z M658.6,107.4v6.6h-0.9
			v-6.6H658.6z"/>
		<path class="st4" d="M665.1,107.8c0.5,0.3,0.9,0.7,1.2,1.2c0.3,0.5,0.4,1.1,0.4,1.8c0,0.7-0.1,1.3-0.4,1.8
			c-0.3,0.5-0.7,0.9-1.2,1.2c-0.5,0.3-1,0.4-1.7,0.4s-1.2-0.1-1.7-0.4c-0.5-0.3-0.9-0.7-1.2-1.2s-0.4-1.1-0.4-1.8
			c0-0.7,0.1-1.3,0.4-1.8c0.3-0.5,0.7-0.9,1.2-1.2c0.5-0.3,1.1-0.4,1.7-0.4S664.6,107.5,665.1,107.8z M662.2,108.4
			c-0.4,0.2-0.7,0.5-0.9,0.9c-0.2,0.4-0.3,0.9-0.3,1.5c0,0.6,0.1,1.1,0.3,1.5c0.2,0.4,0.5,0.7,0.9,0.9c0.4,0.2,0.8,0.3,1.2,0.3
			c0.4,0,0.8-0.1,1.2-0.3c0.4-0.2,0.7-0.5,0.9-0.9c0.2-0.4,0.3-0.9,0.3-1.5c0-0.6-0.1-1.1-0.3-1.5c-0.2-0.4-0.5-0.7-0.9-0.9
			c-0.4-0.2-0.8-0.3-1.2-0.3C663,108.1,662.6,108.2,662.2,108.4z"/>
		<path class="st4" d="M673.3,108.1c0.5,0.5,0.7,1.2,0.7,2.1v3.8h-0.8v-3.8c0-0.7-0.2-1.3-0.5-1.6c-0.4-0.4-0.9-0.6-1.5-0.6
			c-0.7,0-1.2,0.2-1.6,0.6c-0.4,0.4-0.6,1-0.6,1.9v3.5h-0.9v-6.6h0.9v1.6c0.2-0.6,0.5-1,0.9-1.3c0.4-0.3,0.9-0.4,1.5-0.4
			C672.2,107.3,672.9,107.6,673.3,108.1z"/>
	</g>
	<circle id="Elipse_5" class="st5" cx="74.5" cy="64.5" r="17.5"/>
	<circle id="Elipse_5-2" class="st5" cx="145.5" cy="64.5" r="17.5"/>
	<g class="st3">
		<path class="st5" d="M67.4,97c-0.3,0.6-0.9,1.1-1.5,1.5c-0.7,0.4-1.5,0.5-2.4,0.5h-2.8v-8.5h2.8c0.9,0,1.7,0.2,2.4,0.5
			c0.7,0.3,1.2,0.8,1.5,1.5c0.3,0.6,0.5,1.4,0.5,2.2C67.9,95.6,67.8,96.4,67.4,97z M65.7,97c0.5-0.5,0.8-1.3,0.8-2.2
			s-0.3-1.7-0.8-2.2c-0.5-0.5-1.3-0.8-2.3-0.8H62v6h1.4C64.4,97.8,65.2,97.5,65.7,97z"/>
		<path class="st5" d="M71.6,92.7c0.4-0.3,0.9-0.4,1.4-0.4v1.5h-0.4c-0.6,0-1.1,0.1-1.4,0.4c-0.4,0.3-0.5,0.8-0.5,1.4V99h-1.4v-6.6
			h1.4v1.3C70.9,93.3,71.2,92.9,71.6,92.7z"/>
		<path class="st5" d="M78.3,92.7c0.4,0.3,0.7,0.7,0.9,1.2v-1.5h1.4V99h-1.4v-1.5c-0.2,0.5-0.5,0.9-0.9,1.2
			c-0.4,0.3-0.9,0.4-1.5,0.4c-0.6,0-1.1-0.1-1.5-0.4c-0.5-0.3-0.8-0.7-1.1-1.2s-0.4-1.1-0.4-1.8c0-0.7,0.1-1.3,0.4-1.8
			c0.3-0.5,0.6-0.9,1.1-1.2c0.5-0.3,1-0.4,1.5-0.4C77.4,92.3,77.9,92.5,78.3,92.7z M75.7,94.1c-0.4,0.4-0.5,0.9-0.5,1.6
			c0,0.7,0.2,1.2,0.5,1.6s0.9,0.6,1.5,0.6c0.4,0,0.7-0.1,1-0.3c0.3-0.2,0.5-0.4,0.7-0.8s0.3-0.7,0.3-1.2c0-0.4-0.1-0.8-0.3-1.1
			s-0.4-0.6-0.7-0.8c-0.3-0.2-0.6-0.3-1-0.3C76.6,93.5,76.1,93.7,75.7,94.1z"/>
		<path class="st5" d="M84.2,91.3c-0.2,0.2-0.3,0.5-0.3,1v0.1h1.5v1.2h-1.5V99h-1.4v-5.4h-0.9v-1.2h0.9v-0.2c0-0.8,0.2-1.4,0.7-1.8
			c0.5-0.4,1.2-0.6,2.1-0.5V91C84.7,91,84.4,91.1,84.2,91.3z"/>
		<path class="st5" d="M89.7,97.8V99h-0.8c-0.7,0-1.2-0.2-1.6-0.5c-0.4-0.3-0.5-0.9-0.5-1.7v-3.2h-0.9v-1.2h0.9v-1.6h1.4v1.6h1.6
			v1.2h-1.6v3.3c0,0.4,0.1,0.6,0.2,0.8c0.1,0.1,0.4,0.2,0.7,0.2H89.7z"/>
	</g>
	<g class="st3">
		<path class="st5" d="M122.6,90.5V99h-1.4v-8.5H122.6z"/>
		<path class="st5" d="M129.7,90.5v1.1h-2.4V99H126v-7.4h-2.4v-1.1H129.7z"/>
		<path class="st5" d="M134.9,95.7V99h-1.4v-8.5h2.9c1,0,1.7,0.2,2.2,0.7c0.5,0.5,0.7,1.1,0.7,1.9c0,0.8-0.3,1.4-0.8,1.9
			s-1.2,0.7-2.2,0.7H134.9z M138,93.1c0-0.5-0.1-0.8-0.4-1.1s-0.7-0.4-1.3-0.4h-1.4v2.9h1.4C137.4,94.6,138,94.1,138,93.1z"/>
		<path class="st5" d="M145,99l-2.1-3.4h-1V99h-1.4v-8.5h3c1,0,1.7,0.2,2.2,0.7c0.5,0.5,0.8,1.1,0.8,1.9c0,0.7-0.2,1.2-0.6,1.6
			s-0.9,0.7-1.6,0.8l2.2,3.4H145z M142,94.6h1.5c1.1,0,1.7-0.5,1.7-1.5c0-0.5-0.1-0.8-0.4-1.1c-0.3-0.3-0.7-0.4-1.3-0.4H142V94.6z"
			/>
		<path class="st5" d="M153.8,91c0.6,0.4,1.1,0.9,1.5,1.5c0.4,0.7,0.5,1.4,0.5,2.2s-0.2,1.6-0.5,2.2c-0.4,0.7-0.9,1.2-1.5,1.5
			c-0.6,0.4-1.3,0.6-2.1,0.6c-0.8,0-1.5-0.2-2.1-0.6c-0.6-0.4-1.1-0.9-1.5-1.5c-0.4-0.7-0.6-1.4-0.6-2.2s0.2-1.6,0.6-2.2
			c0.4-0.7,0.9-1.2,1.5-1.5c0.6-0.4,1.4-0.6,2.1-0.6C152.5,90.4,153.2,90.6,153.8,91z M150.2,92.1c-0.4,0.2-0.8,0.6-1,1.1
			c-0.2,0.5-0.4,1-0.4,1.6s0.1,1.2,0.4,1.6c0.2,0.5,0.6,0.8,1,1.1c0.4,0.2,0.9,0.4,1.5,0.4c0.5,0,1-0.1,1.4-0.4s0.7-0.6,1-1.1
			s0.4-1,0.4-1.6s-0.1-1.2-0.4-1.6s-0.6-0.8-1-1.1s-0.9-0.4-1.4-0.4C151.1,91.7,150.7,91.8,150.2,92.1z"/>
		<path class="st5" d="M163.6,91.2c0.7,0.5,1.2,1.2,1.4,2.1h-1.5c-0.2-0.5-0.5-0.9-1-1.2s-1-0.5-1.6-0.5c-0.5,0-1,0.1-1.4,0.4
			s-0.7,0.6-0.9,1.1s-0.3,1-0.3,1.6c0,0.6,0.1,1.1,0.3,1.6s0.5,0.8,0.9,1.1s0.8,0.4,1.4,0.4c0.6,0,1.2-0.1,1.6-0.5
			c0.4-0.3,0.8-0.7,1-1.2h1.5c-0.2,0.9-0.7,1.6-1.4,2.1c-0.7,0.5-1.6,0.8-2.6,0.8c-0.8,0-1.5-0.2-2.1-0.5c-0.6-0.4-1.1-0.9-1.4-1.5
			s-0.5-1.4-0.5-2.2s0.2-1.6,0.5-2.2c0.3-0.7,0.8-1.2,1.4-1.5s1.3-0.6,2.1-0.6C162.1,90.4,162.9,90.7,163.6,91.2z"/>
	</g>
	<g class="st3">
		<path class="st5" d="M110,106.2c0.7,0.5,1.2,1.2,1.4,2.1h-1.5c-0.2-0.5-0.5-0.9-1-1.2s-1-0.5-1.6-0.5c-0.5,0-1,0.1-1.4,0.4
			s-0.7,0.6-0.9,1.1s-0.3,1-0.3,1.6c0,0.6,0.1,1.1,0.3,1.6s0.5,0.8,0.9,1.1s0.8,0.4,1.4,0.4c0.6,0,1.2-0.1,1.6-0.5
			c0.4-0.3,0.8-0.7,1-1.2h1.5c-0.2,0.9-0.7,1.6-1.4,2.1c-0.7,0.5-1.6,0.8-2.6,0.8c-0.8,0-1.5-0.2-2.1-0.5c-0.6-0.4-1.1-0.9-1.4-1.5
			s-0.5-1.4-0.5-2.2s0.2-1.6,0.5-2.2c0.3-0.7,0.8-1.2,1.4-1.5s1.3-0.6,2.1-0.6C108.5,105.4,109.3,105.7,110,106.2z"/>
		<path class="st5" d="M117.5,107.7c0.5,0.3,0.9,0.7,1.2,1.2c0.3,0.5,0.4,1.1,0.4,1.8c0,0.7-0.1,1.3-0.4,1.8
			c-0.3,0.5-0.7,0.9-1.2,1.2c-0.5,0.3-1.1,0.4-1.7,0.4c-0.6,0-1.2-0.1-1.7-0.4c-0.5-0.3-0.9-0.7-1.2-1.2c-0.3-0.5-0.4-1.1-0.4-1.8
			c0-0.7,0.1-1.3,0.4-1.8c0.3-0.5,0.7-0.9,1.2-1.2c0.5-0.3,1.1-0.4,1.7-0.4C116.4,107.3,117,107.4,117.5,107.7z M114.8,108.7
			c-0.3,0.2-0.5,0.4-0.7,0.7s-0.3,0.7-0.3,1.2c0,0.5,0.1,0.9,0.3,1.2s0.4,0.6,0.7,0.7c0.3,0.2,0.6,0.2,1,0.2s0.7-0.1,1-0.2
			c0.3-0.2,0.5-0.4,0.7-0.7c0.2-0.3,0.3-0.7,0.3-1.2c0-0.5-0.1-0.9-0.3-1.2c-0.2-0.3-0.4-0.6-0.7-0.7c-0.3-0.2-0.6-0.2-1-0.2
			S115.1,108.6,114.8,108.7z"/>
		<path class="st5" d="M126,108c0.5,0.5,0.7,1.2,0.7,2.1v3.9h-1.4v-3.7c0-0.6-0.2-1-0.5-1.4c-0.3-0.3-0.7-0.5-1.2-0.5
			c-0.5,0-1,0.2-1.3,0.5s-0.5,0.9-0.5,1.5v3.5h-1.4v-6.6h1.4v1.5c0.2-0.5,0.5-0.9,0.9-1.2c0.4-0.3,0.9-0.4,1.4-0.4
			C124.9,107.3,125.5,107.5,126,108z"/>
		<path class="st5" d="M130.3,106.3c-0.2,0.2-0.3,0.5-0.3,1v0.1h1.5v1.2h-1.5v5.4h-1.4v-5.4h-0.9v-1.2h0.9v-0.2
			c0-0.8,0.2-1.4,0.7-1.8c0.5-0.4,1.2-0.6,2.1-0.5v1.2C130.9,106,130.5,106.1,130.3,106.3z"/>
		<path class="st5" d="M132.5,104.9c0.2-0.2,0.4-0.2,0.6-0.2c0.3,0,0.5,0.1,0.6,0.2c0.2,0.2,0.2,0.3,0.2,0.6c0,0.2-0.1,0.4-0.2,0.6
			c-0.2,0.1-0.4,0.2-0.6,0.2c-0.3,0-0.5-0.1-0.6-0.2c-0.2-0.1-0.2-0.3-0.2-0.6C132.3,105.2,132.4,105,132.5,104.9z M133.9,107.4v6.6
			h-1.4v-6.6H133.9z"/>
		<path class="st5" d="M137.8,107.7c0.4-0.3,0.9-0.4,1.4-0.4v1.5h-0.4c-0.6,0-1.1,0.1-1.4,0.4c-0.4,0.3-0.5,0.8-0.5,1.4v3.3h-1.4
			v-6.6h1.4v1.3C137.1,108.3,137.4,107.9,137.8,107.7z"/>
		<path class="st5" d="M150.5,108c0.5,0.5,0.7,1.2,0.7,2.1v3.9h-1.4v-3.7c0-0.6-0.1-1-0.4-1.3s-0.7-0.5-1.2-0.5
			c-0.5,0-1,0.2-1.3,0.5c-0.3,0.3-0.5,0.8-0.5,1.5v3.5H145v-3.7c0-0.6-0.1-1-0.4-1.3c-0.3-0.3-0.7-0.5-1.2-0.5c-0.5,0-1,0.2-1.3,0.5
			s-0.5,0.8-0.5,1.5v3.5h-1.4v-6.6h1.4v1.4c0.2-0.5,0.4-0.8,0.8-1.1c0.4-0.3,0.9-0.4,1.4-0.4c0.6,0,1,0.1,1.4,0.4
			c0.4,0.3,0.7,0.7,0.9,1.2c0.2-0.5,0.5-0.9,0.9-1.2c0.4-0.3,0.9-0.4,1.4-0.4C149.4,107.3,150,107.5,150.5,108z"/>
		<path class="st5" d="M156.9,107.7c0.4,0.3,0.7,0.7,0.9,1.2v-1.5h1.4v6.6h-1.4v-1.5c-0.2,0.5-0.5,0.9-0.9,1.2
			c-0.4,0.3-0.9,0.4-1.5,0.4c-0.6,0-1.1-0.1-1.5-0.4c-0.5-0.3-0.8-0.7-1.1-1.2s-0.4-1.1-0.4-1.8c0-0.7,0.1-1.3,0.4-1.8
			c0.3-0.5,0.6-0.9,1.1-1.2c0.5-0.3,1-0.4,1.5-0.4C156,107.3,156.5,107.5,156.9,107.7z M154.4,109.1c-0.4,0.4-0.5,0.9-0.5,1.6
			c0,0.7,0.2,1.2,0.5,1.6s0.9,0.6,1.5,0.6c0.4,0,0.7-0.1,1-0.3c0.3-0.2,0.5-0.4,0.7-0.8s0.3-0.7,0.3-1.2c0-0.4-0.1-0.8-0.3-1.1
			s-0.4-0.6-0.7-0.8c-0.3-0.2-0.6-0.3-1-0.3C155.2,108.5,154.7,108.7,154.4,109.1z"/>
		<path class="st5" d="M164.2,112.8v1.2h-0.8c-0.7,0-1.2-0.2-1.6-0.5c-0.4-0.3-0.5-0.9-0.5-1.7v-3.2h-0.9v-1.2h0.9v-1.6h1.4v1.6h1.6
			v1.2h-1.6v3.3c0,0.4,0.1,0.6,0.2,0.8c0.1,0.1,0.4,0.2,0.7,0.2H164.2z"/>
		<path class="st5" d="M165.5,104.9c0.2-0.2,0.4-0.2,0.6-0.2c0.3,0,0.5,0.1,0.6,0.2c0.2,0.2,0.2,0.3,0.2,0.6c0,0.2-0.1,0.4-0.2,0.6
			c-0.2,0.1-0.4,0.2-0.6,0.2c-0.3,0-0.5-0.1-0.6-0.2c-0.2-0.1-0.2-0.3-0.2-0.6C165.3,105.2,165.3,105,165.5,104.9z M166.8,107.4v6.6
			h-1.4v-6.6H166.8z"/>
		<path class="st5" d="M173.2,107.7c0.5,0.3,0.9,0.7,1.2,1.2c0.3,0.5,0.4,1.1,0.4,1.8c0,0.7-0.1,1.3-0.4,1.8
			c-0.3,0.5-0.7,0.9-1.2,1.2c-0.5,0.3-1.1,0.4-1.7,0.4c-0.6,0-1.2-0.1-1.7-0.4c-0.5-0.3-0.9-0.7-1.2-1.2c-0.3-0.5-0.4-1.1-0.4-1.8
			c0-0.7,0.1-1.3,0.4-1.8c0.3-0.5,0.7-0.9,1.2-1.2c0.5-0.3,1.1-0.4,1.7-0.4C172.1,107.3,172.7,107.4,173.2,107.7z M170.5,108.7
			c-0.3,0.2-0.5,0.4-0.7,0.7s-0.3,0.7-0.3,1.2c0,0.5,0.1,0.9,0.3,1.2s0.4,0.6,0.7,0.7c0.3,0.2,0.6,0.2,1,0.2s0.7-0.1,1-0.2
			c0.3-0.2,0.5-0.4,0.7-0.7c0.2-0.3,0.3-0.7,0.3-1.2c0-0.5-0.1-0.9-0.3-1.2c-0.2-0.3-0.4-0.6-0.7-0.7c-0.3-0.2-0.6-0.2-1-0.2
			S170.8,108.6,170.5,108.7z"/>
		<path class="st5" d="M181.7,108c0.5,0.5,0.7,1.2,0.7,2.1v3.9h-1.4v-3.7c0-0.6-0.2-1-0.5-1.4c-0.3-0.3-0.7-0.5-1.2-0.5
			c-0.5,0-1,0.2-1.3,0.5s-0.5,0.9-0.5,1.5v3.5h-1.4v-6.6h1.4v1.5c0.2-0.5,0.5-0.9,0.9-1.2c0.4-0.3,0.9-0.4,1.4-0.4
			C180.6,107.3,181.3,107.5,181.7,108z"/>
	</g>
	<circle id="Elipse_39" class="st2" cx="717.5" cy="64.5" r="17.5"/>
	<g class="st3">
		<path class="st4" d="M704.5,91.2c0.7,0.5,1.1,1.2,1.4,2H705c-0.2-0.6-0.6-1.1-1.1-1.5c-0.5-0.4-1.2-0.5-1.9-0.5
			c-0.6,0-1.1,0.1-1.6,0.4c-0.5,0.3-0.9,0.7-1.1,1.2c-0.3,0.5-0.4,1.2-0.4,1.9s0.1,1.3,0.4,1.9c0.3,0.5,0.6,0.9,1.1,1.2
			c0.5,0.3,1,0.4,1.6,0.4c0.8,0,1.4-0.2,1.9-0.5c0.5-0.4,0.9-0.8,1.1-1.5h0.9c-0.3,0.9-0.7,1.5-1.4,2s-1.5,0.7-2.5,0.7
			c-0.8,0-1.5-0.2-2.1-0.6c-0.6-0.4-1.1-0.9-1.4-1.5s-0.5-1.4-0.5-2.2c0-0.8,0.2-1.6,0.5-2.2s0.8-1.2,1.4-1.5
			c0.6-0.4,1.3-0.5,2.1-0.5C703,90.5,703.9,90.7,704.5,91.2z"/>
		<path class="st4" d="M708.3,90.1V99h-0.9v-8.9H708.3z"/>
		<path class="st4" d="M714.8,92.8c0.5,0.3,0.9,0.7,1.2,1.2c0.3,0.5,0.4,1.1,0.4,1.8c0,0.7-0.1,1.3-0.4,1.8
			c-0.3,0.5-0.7,0.9-1.2,1.2c-0.5,0.3-1,0.4-1.7,0.4s-1.2-0.1-1.7-0.4c-0.5-0.3-0.9-0.7-1.2-1.2s-0.4-1.1-0.4-1.8
			c0-0.7,0.1-1.3,0.4-1.8c0.3-0.5,0.7-0.9,1.2-1.2c0.5-0.3,1.1-0.4,1.7-0.4S714.3,92.5,714.8,92.8z M711.9,93.4
			c-0.4,0.2-0.7,0.5-0.9,0.9c-0.2,0.4-0.3,0.9-0.3,1.5c0,0.6,0.1,1.1,0.3,1.5c0.2,0.4,0.5,0.7,0.9,0.9c0.4,0.2,0.8,0.3,1.2,0.3
			c0.4,0,0.8-0.1,1.2-0.3c0.4-0.2,0.7-0.5,0.9-0.9c0.2-0.4,0.3-0.9,0.3-1.5c0-0.6-0.1-1.1-0.3-1.5c-0.2-0.4-0.5-0.7-0.9-0.9
			c-0.4-0.2-0.8-0.3-1.2-0.3C712.7,93.1,712.3,93.2,711.9,93.4z"/>
		<path class="st4" d="M721.6,92.9c0.4,0.4,0.7,0.9,0.8,1.5h-0.8c0-0.4-0.2-0.8-0.5-1c-0.3-0.3-0.7-0.4-1.2-0.4
			c-0.4,0-0.8,0.1-1,0.3s-0.4,0.5-0.4,0.8c0,0.3,0.1,0.5,0.2,0.6c0.2,0.2,0.3,0.3,0.6,0.4c0.2,0.1,0.5,0.2,0.9,0.3
			c0.5,0.1,0.9,0.2,1.2,0.3s0.5,0.3,0.8,0.5s0.3,0.6,0.3,1c0,0.5-0.2,0.9-0.6,1.3c-0.4,0.3-0.9,0.5-1.5,0.5c-0.8,0-1.4-0.2-1.8-0.6
			c-0.5-0.4-0.8-0.9-0.9-1.5h0.8c0,0.4,0.2,0.8,0.6,1.1c0.3,0.3,0.8,0.4,1.3,0.4c0.4,0,0.7-0.1,1-0.3c0.2-0.2,0.3-0.5,0.3-0.8
			c0-0.3-0.1-0.5-0.2-0.7c-0.2-0.2-0.4-0.3-0.6-0.4c-0.2-0.1-0.6-0.2-1-0.3c-0.5-0.1-0.8-0.2-1.1-0.3c-0.3-0.1-0.5-0.3-0.7-0.5
			c-0.2-0.2-0.3-0.6-0.3-1c0-0.5,0.2-1,0.6-1.3c0.4-0.3,0.9-0.5,1.6-0.5C720.6,92.4,721.1,92.6,721.6,92.9z"/>
		<path class="st4" d="M728.3,97.9c0.4-0.3,0.6-0.7,0.7-1.2h0.9c-0.1,0.7-0.5,1.3-1,1.7c-0.5,0.4-1.2,0.6-2.1,0.6
			c-0.6,0-1.2-0.1-1.7-0.4c-0.5-0.3-0.9-0.7-1.1-1.2c-0.3-0.5-0.4-1.1-0.4-1.8c0-0.7,0.1-1.3,0.4-1.8c0.3-0.5,0.7-0.9,1.1-1.2
			c0.5-0.3,1-0.4,1.7-0.4c0.6,0,1.2,0.1,1.7,0.4c0.5,0.3,0.8,0.6,1.1,1.1s0.4,0.9,0.4,1.5c0,0.2,0,0.4,0,0.6h-5.4
			c0,0.6,0.1,1,0.3,1.4c0.2,0.4,0.5,0.6,0.9,0.8c0.4,0.2,0.7,0.3,1.1,0.3C727.4,98.4,727.9,98.2,728.3,97.9z M725.7,93.3
			c-0.4,0.2-0.6,0.4-0.9,0.8s-0.3,0.8-0.4,1.4h4.6c0-0.5-0.1-1-0.3-1.4s-0.5-0.6-0.8-0.8c-0.4-0.2-0.7-0.3-1.2-0.3
			C726.4,93,726,93.1,725.7,93.3z"/>
		<path class="st4" d="M735.9,92.9c0.5,0.3,0.8,0.8,1,1.4v-4.1h0.8V99h-0.8v-1.8c-0.2,0.6-0.5,1-1,1.4s-1,0.5-1.7,0.5
			c-0.6,0-1.1-0.1-1.6-0.4c-0.5-0.3-0.8-0.7-1.1-1.2s-0.4-1.1-0.4-1.8c0-0.7,0.1-1.3,0.4-1.8c0.3-0.5,0.6-0.9,1.1-1.2
			c0.5-0.3,1-0.4,1.6-0.4C734.9,92.4,735.4,92.5,735.9,92.9z M732.7,93.8c-0.4,0.5-0.7,1.1-0.7,1.9c0,0.8,0.2,1.4,0.7,1.9
			c0.4,0.5,1,0.7,1.8,0.7c0.5,0,0.9-0.1,1.3-0.3c0.4-0.2,0.7-0.5,0.9-0.9c0.2-0.4,0.3-0.9,0.3-1.4c0-0.5-0.1-1-0.3-1.4
			c-0.2-0.4-0.5-0.7-0.9-0.9c-0.4-0.2-0.8-0.3-1.3-0.3C733.7,93.1,733.1,93.3,732.7,93.8z"/>
	</g>
	<g id="Grupo_1202" transform="translate(166 -31)" class="st6">
		<line id="Línea_105-3" class="st0" x1="68.5" y1="95.5" x2="102.5" y2="95.5"/>
		<path id="Trazado_192-3" class="st1" d="M100.2,92.5l2.8,2.6l-2.8,3.1"/>
	</g>
	<g id="Grupo_1203" transform="translate(237 -31)" class="st6">
		<line id="Línea_105-4" class="st0" x1="68.5" y1="95.5" x2="102.5" y2="95.5"/>
		<path id="Trazado_192-4" class="st1" d="M100.2,92.5l2.8,2.6l-2.8,3.1"/>
	</g>
	<g id="Grupo_1204" transform="translate(307 -31)" class="st6">
		<line id="Línea_105-5" class="st0" x1="68.5" y1="95.5" x2="102.5" y2="95.5"/>
		<path id="Trazado_192-5" class="st1" d="M100.2,92.5l2.8,2.6l-2.8,3.1"/>
	</g>
	<g id="Grupo_1205" transform="translate(377 -31)" class="st6">
		<line id="Línea_105-6" class="st0" x1="68.5" y1="95.5" x2="102.5" y2="95.5"/>
		<path id="Trazado_192-6" class="st1" d="M100.2,92.5l2.8,2.6l-2.8,3.1"/>
	</g>
	<g id="Grupo_1206" transform="translate(446 -31)" class="st6">
		<line id="Línea_105-7" class="st0" x1="68.5" y1="95.5" x2="102.5" y2="95.5"/>
		<path id="Trazado_192-7" class="st1" d="M100.2,92.5l2.8,2.6l-2.8,3.1"/>
	</g>
	<g id="Grupo_1207" transform="translate(525 -31)" class="st6">
		<line id="Línea_105-8" class="st0" x1="60.5" y1="95.5" x2="101.5" y2="95.5"/>
		<path id="Trazado_192-8" class="st1" d="M100.2,92.5l2.8,2.6l-2.8,3.1"/>
	</g>
	<g id="Grupo_1208" transform="translate(596 -31)" class="st6">
		<line id="Línea_105-9" class="st0" x1="68.5" y1="95.5" x2="102.5" y2="95.5"/>
		<path id="Trazado_192-9" class="st1" d="M100.2,92.5l2.8,2.6l-2.8,3.1"/>
	</g>
</g>
</svg>
